3a_experiments/Lab_1_introduction/results/csv/green_diode_i_v.csv

;Scopy version,f4beeb1
;Exported on,Thursday September 19/09/2024
;Device,M2K
;Nr of samples,3200
;Sample rate,100000
;Tool,Oscilloscope
;Additional Information,
Sample,Time(S),CH1(V),CH2(V)
0,-0.016,1.39867,-0.00469681
1,-0.01599,1.39867,-0.00469681
2,-0.01598,1.39867,-0.00469681
3,-0.01597,1.44878,-0.00469681
4,-0.01596,1.43207,-0.00469681
5,-0.01595,1.44878,-0.00469681
6,-0.01594,1.44878,-0.00469681
7,-0.01593,1.44878,-0.00469681
8,-0.01592,1.46548,-0.00469681
9,-0.01591,1.46548,-0.00469681
10,-0.0159,1.46548,-0.00469681
11,-0.01589,1.49889,-0.00469681
12,-0.01588,1.48218,-0.00469681
13,-0.01587,1.48218,-0.00469681
14,-0.01586,1.51559,-0.00628386
15,-0.01585,1.49889,-0.00310976
16,-0.01584,1.51559,-0.00469681
17,-0.01583,1.51559,-0.00469681
18,-0.01582,1.549,-0.00469681
19,-0.01581,1.5323,-0.00469681
20,-0.0158,1.549,-0.00469681
21,-0.01579,1.549,-0.00469681
22,-0.01578,1.5657,-0.00469681
23,-0.01577,1.5657,-0.00469681
24,-0.01576,1.5657,-0.00469681
25,-0.01575,1.58241,-0.00469681
26,-0.01574,1.58241,-0.00469681
27,-0.01573,1.58241,-0.00469681
28,-0.01572,1.59911,-0.00310976
29,-0.01571,1.59911,-0.00310976
30,-0.0157,1.59911,-0.00310976
31,-0.01569,1.63252,-0.00310976
32,-0.01568,1.61581,-0.00310976
33,-0.01567,1.63252,6.43283e-05
34,-0.01566,1.63252,-0.00152272
35,-0.01565,1.63252,-0.00152272
36,-0.01564,1.63252,0.00165137
37,-0.01563,1.66593,0.00165137
38,-0.01562,1.64922,0.00165137
39,-0.01561,1.64922,0.00482547
40,-0.0156,1.68263,0.00323842
41,-0.01559,1.66593,0.00482547
42,-0.01558,1.66593,0.00799956
43,-0.01557,1.66593,0.00799956
44,-0.01556,1.71604,0.00958661
45,-0.01555,1.68263,0.0111737
46,-0.01554,1.68263,0.0127607
47,-0.01553,1.71604,0.0127607
48,-0.01552,1.71604,0.0191089
49,-0.01551,1.71604,0.0191089
50,-0.0155,1.71604,0.0206959
51,-0.01549,1.71604,0.02387
52,-0.01548,1.71604,0.0254571
53,-0.01547,1.74944,0.0286312
54,-0.01546,1.73274,0.0302182
55,-0.01545,1.73274,0.0333923
56,-0.01544,1.73274,0.0349793
57,-0.01543,1.73274,0.0381534
58,-0.01542,1.73274,0.0397405
59,-0.01541,1.76615,0.0445016
60,-0.0154,1.74944,0.0476757
61,-0.01539,1.74944,0.0508498
62,-0.01538,1.74944,0.0524369
63,-0.01537,1.74944,0.055611
64,-0.01536,1.74944,0.058785
65,-0.01535,1.74944,0.0619591
66,-0.01534,1.74944,0.0635462
67,-0.01533,1.74944,0.0683073
68,-0.01532,1.78285,0.0714814
69,-0.01531,1.76615,0.0746555
70,-0.0153,1.76615,0.0778296
71,-0.01529,1.76615,0.0810037
72,-0.01528,1.76615,0.0841778
73,-0.01527,1.76615,0.0873519
74,-0.01526,1.79956,0.090526
75,-0.01525,1.78285,0.0952871
76,-0.01524,1.78285,0.0984612
77,-0.01523,1.78285,0.101635
78,-0.01522,1.78285,0.104809
79,-0.01521,1.78285,0.107983
80,-0.0152,1.78285,0.111158
81,-0.01519,1.78285,0.114332
82,-0.01518,1.78285,0.117506
83,-0.01517,1.78285,0.122267
84,-0.01516,1.78285,0.125441
85,-0.01515,1.78285,0.128615
86,-0.01514,1.79956,0.131789
87,-0.01513,1.79956,0.13655
88,-0.01512,1.79956,0.139724
89,-0.01511,1.79956,0.142898
90,-0.0151,1.79956,0.14766
91,-0.01509,1.79956,0.150834
92,-0.01508,1.79956,0.154008
93,-0.01507,1.79956,0.157182
94,-0.01506,1.79956,0.160356
95,-0.01505,1.79956,0.166704
96,-0.01504,1.83296,0.168291
97,-0.01503,1.81626,0.173052
98,-0.01502,1.81626,0.176226
99,-0.01501,1.81626,0.179401
100,-0.015,1.81626,0.185749
101,-0.01499,1.81626,0.187336
102,-0.01498,1.81626,0.19051
103,-0.01497,1.81626,0.193684
104,-0.01496,1.81626,0.198445
105,-0.01495,1.81626,0.204793
106,-0.01494,1.81626,0.20638
107,-0.01493,1.81626,0.209554
108,-0.01492,1.81626,0.214316
109,-0.01491,1.81626,0.21749
110,-0.0149,1.83296,0.222251
111,-0.01489,1.83296,0.227012
112,-0.01488,1.83296,0.228599
113,-0.01487,1.83296,0.234947
114,-0.01486,1.83296,0.238121
115,-0.01485,1.83296,0.239708
116,-0.01484,1.83296,0.247644
117,-0.01483,1.83296,0.250818
118,-0.01482,1.83296,0.253992
119,-0.01481,1.83296,0.257166
120,-0.0148,1.83296,0.26034
121,-0.01479,1.83296,0.263514
122,-0.01478,1.83296,0.266688
123,-0.01477,1.83296,0.273036
124,-0.01476,1.83296,0.27621
125,-0.01475,1.84967,0.277797
126,-0.01474,1.84967,0.284146
127,-0.01473,1.83296,0.28732
128,-0.01472,1.86637,0.288907
129,-0.01471,1.84967,0.295255
130,-0.0147,1.84967,0.300016
131,-0.01469,1.84967,0.30319
132,-0.01468,1.84967,0.304777
133,-0.01467,1.84967,0.311125
134,-0.01466,1.84967,0.314299
135,-0.01465,1.84967,0.317474
136,-0.01464,1.84967,0.323822
137,-0.01463,1.84967,0.326996
138,-0.01462,1.84967,0.331757
139,-0.01461,1.86637,0.333344
140,-0.0146,1.86637,0.339692
141,-0.01459,1.86637,0.342866
142,-0.01458,1.86637,0.34604
143,-0.01457,1.86637,0.349215
144,-0.01456,1.86637,0.355563
145,-0.01455,1.84967,0.358737
146,-0.01454,1.88307,0.361911
147,-0.01453,1.86637,0.366672
148,-0.01452,1.86637,0.369846
149,-0.01451,1.86637,0.374607
150,-0.0145,1.86637,0.379368
151,-0.01449,1.86637,0.382542
152,-0.01448,1.86637,0.385717
153,-0.01447,1.86637,0.390478
154,-0.01446,1.86637,0.393652
155,-0.01445,1.86637,0.396826
156,-0.01444,1.86637,0.401587
157,-0.01443,1.86637,0.404761
158,-0.01442,1.86637,0.411109
159,-0.01441,1.86637,0.414283
160,-0.0144,1.86637,0.417458
161,-0.01439,1.86637,0.420632
162,-0.01438,1.88307,0.42698
163,-0.01437,1.91648,0.431741
164,-0.01436,1.89978,0.436502
165,-0.01435,1.89978,0.439676
166,-0.01434,1.89978,0.44285
167,-0.01433,1.89978,0.444437
168,-0.01432,1.88307,0.447611
169,-0.01431,1.88307,0.455547
170,-0.0143,1.88307,0.457134
171,-0.01429,1.88307,0.460308
172,-0.01428,1.88307,0.466656
173,-0.01427,1.88307,0.46983
174,-0.01426,1.88307,0.473004
175,-0.01425,1.88307,0.477765
176,-0.01424,1.91648,0.484113
177,-0.01423,1.89978,0.4857
178,-0.01422,1.89978,0.488875
179,-0.01421,1.89978,0.492049
180,-0.0142,1.89978,0.49681
181,-0.01419,1.89978,0.499984
182,-0.01418,1.89978,0.507919
183,-0.01417,1.89978,0.509506
184,-0.01416,1.89978,0.51268
185,-0.01415,1.89978,0.519028
186,-0.01414,1.89978,0.522203
187,-0.01413,1.89978,0.525377
188,-0.01412,1.89978,0.530138
189,-0.01411,1.89978,0.533312
190,-0.0141,1.89978,0.53966
191,-0.01409,1.89978,0.541247
192,-0.01408,1.89978,0.546008
193,-0.01407,1.89978,0.549182
194,-0.01406,1.89978,0.553944
195,-0.01405,1.89978,0.560292
196,-0.01404,1.89978,0.561879
197,-0.01403,1.89978,0.56664
198,-0.01402,1.89978,0.569814
199,-0.01401,1.91648,0.572988
200,-0.014,1.91648,0.580923
201,-0.01399,1.91648,0.584097
202,-0.01398,1.91648,0.587271
203,-0.01397,1.91648,0.590446
204,-0.01396,1.91648,0.59362
205,-0.01395,1.91648,0.599968
206,-0.01394,1.91648,0.601555
207,-0.01393,1.91648,0.607903
208,-0.01392,1.91648,0.611077
209,-0.01391,1.91648,0.617425
210,-0.0139,1.91648,0.620599
211,-0.01389,1.91648,0.623774
212,-0.01388,1.91648,0.630122
213,-0.01387,1.91648,0.633296
214,-0.01386,1.91648,0.63647
215,-0.01385,1.91648,0.639644
216,-0.01384,1.91648,0.642818
217,-0.01383,1.91648,0.649166
218,-0.01382,1.91648,0.65234
219,-0.01381,1.91648,0.658689
220,-0.0138,1.91648,0.661863
221,-0.01379,1.91648,0.66345
222,-0.01378,1.91648,0.669798
223,-0.01377,1.91648,0.672972
224,-0.01376,1.91648,0.674559
225,-0.01375,1.91648,0.682494
226,-0.01374,1.91648,0.684081
227,-0.01373,1.91648,0.690429
228,-0.01372,1.94989,0.692017
229,-0.01371,1.93319,0.698365
230,-0.0137,1.93319,0.701539
231,-0.01369,1.93319,0.707887
232,-0.01368,1.93319,0.711061
233,-0.01367,1.93319,0.714235
234,-0.01366,1.93319,0.718996
235,-0.01365,1.93319,0.72217
236,-0.01364,1.93319,0.725344
237,-0.01363,1.93319,0.730106
238,-0.01362,1.93319,0.734867
239,-0.01361,1.93319,0.738041
240,-0.0136,1.93319,0.742802
241,-0.01359,1.93319,0.745976
242,-0.01358,1.93319,0.750737
243,-0.01357,1.93319,0.753911
244,-0.01356,1.94989,0.76026
245,-0.01355,1.94989,0.763434
246,-0.01354,1.94989,0.768195
247,-0.01353,1.94989,0.771369
248,-0.01352,1.94989,0.774543
249,-0.01351,1.94989,0.779304
250,-0.0135,1.93319,0.784065
251,-0.01349,1.96659,0.788826
252,-0.01348,1.94989,0.792
253,-0.01347,1.94989,0.798349
254,-0.01346,1.94989,0.799936
255,-0.01345,1.94989,0.80311
256,-0.01344,1.94989,0.811045
257,-0.01343,1.94989,0.812632
258,-0.01342,1.94989,0.817393
259,-0.01341,1.94989,0.820567
260,-0.0134,1.94989,0.823741
261,-0.01339,1.94989,0.828502
262,-0.01338,1.94989,0.831677
263,-0.01337,1.94989,0.838025
264,-0.01336,1.94989,0.841199
265,-0.01335,2,0.844373
266,-0.01334,2,0.850721
267,-0.01333,1.94989,0.852308
268,-0.01332,1.96659,0.860243
269,-0.01331,1.96659,0.86183
270,-0.0133,1.96659,0.866592
271,-0.01329,1.96659,0.869766
272,-0.01328,1.96659,0.87294
273,-0.01327,1.96659,0.876114
274,-0.01326,1.94989,0.880875
275,-0.01325,1.94989,0.885636
276,-0.01324,1.94989,0.890397
277,-0.01323,1.96659,0.893571
278,-0.01322,1.96659,0.898333
279,-0.01321,1.96659,0.903094
280,-0.0132,2,0.906268
281,-0.01319,2,0.912616
282,-0.01318,2,0.91579
283,-0.01317,2,0.920551
284,-0.01316,2,0.923725
285,-0.01315,2,0.926899
286,-0.01314,2,0.933248
287,-0.01313,2,0.938009
288,-0.01312,2,0.933248
289,-0.01311,2,0.931661
290,-0.0131,2,0.928486
291,-0.01309,2,0.922138
292,-0.01308,2,0.918964
293,-0.01307,2,0.91579
294,-0.01306,2,0.911029
295,-0.01305,2,0.906268
296,-0.01304,2,0.901507
297,-0.01303,2,0.898333
298,-0.01302,2,0.895158
299,-0.01301,1.96659,0.891984
300,-0.013,1.96659,0.887223
301,-0.01299,2,0.880875
302,-0.01298,2,0.879288
303,-0.01297,2,0.87294
304,-0.01296,1.94989,0.871353
305,-0.01295,1.94989,0.865005
306,-0.01294,1.94989,0.86183
307,-0.01293,1.94989,0.857069
308,-0.01292,1.96659,0.852308
309,-0.01291,1.96659,0.850721
310,-0.0129,1.96659,0.844373
311,-0.01289,1.96659,0.841199
312,-0.01288,1.94989,0.838025
313,-0.01287,1.94989,0.831677
314,-0.01286,1.94989,0.83009
315,-0.01285,1.94989,0.823741
316,-0.01284,1.94989,0.820567
317,-0.01283,1.94989,0.817393
318,-0.01282,1.94989,0.814219
319,-0.01281,1.94989,0.811045
320,-0.0128,1.94989,0.80311
321,-0.01279,1.94989,0.799936
322,-0.01278,1.94989,0.798349
323,-0.01277,1.94989,0.792
324,-0.01276,1.94989,0.788826
325,-0.01275,1.96659,0.784065
326,-0.01274,1.93319,0.779304
327,-0.01273,1.96659,0.77613
328,-0.01272,1.94989,0.771369
329,-0.01271,1.94989,0.768195
330,-0.0127,1.94989,0.765021
331,-0.01269,1.94989,0.76026
332,-0.01268,1.93319,0.755498
333,-0.01267,1.93319,0.750737
334,-0.01266,1.93319,0.747563
335,-0.01265,1.93319,0.744389
336,-0.01264,1.93319,0.739628
337,-0.01263,1.93319,0.734867
338,-0.01262,1.93319,0.730106
339,-0.01261,1.93319,0.726932
340,-0.0126,1.93319,0.723757
341,-0.01259,1.93319,0.718996
342,-0.01258,1.93319,0.715822
343,-0.01257,1.93319,0.712648
344,-0.01256,1.93319,0.707887
345,-0.01255,1.93319,0.703126
346,-0.01254,1.93319,0.696778
347,-0.01253,1.93319,0.693604
348,-0.01252,1.91648,0.690429
349,-0.01251,1.91648,0.687255
350,-0.0125,1.91648,0.680907
351,-0.01249,1.94989,0.677733
352,-0.01248,1.93319,0.674559
353,-0.01247,1.94989,0.671385
354,-0.01246,1.91648,0.666624
355,-0.01245,1.91648,0.660276
356,-0.01244,1.91648,0.658689
357,-0.01243,1.91648,0.655514
358,-0.01242,1.91648,0.647579
359,-0.01241,1.91648,0.645992
360,-0.0124,1.91648,0.639644
361,-0.01239,1.91648,0.638057
362,-0.01238,1.91648,0.634883
363,-0.01237,1.91648,0.631709
364,-0.01236,1.91648,0.625361
365,-0.01235,1.91648,0.619012
366,-0.01234,1.93319,0.617425
367,-0.01233,1.91648,0.614251
368,-0.01232,1.91648,0.607903
369,-0.01231,1.91648,0.606316
370,-0.0123,1.91648,0.601555
371,-0.01229,1.91648,0.595207
372,-0.01228,1.91648,0.592033
373,-0.01227,1.91648,0.588858
374,-0.01226,1.91648,0.585684
375,-0.01225,1.91648,0.58251
376,-0.01224,1.91648,0.574575
377,-0.01223,1.89978,0.571401
378,-0.01222,1.89978,0.568227
379,-0.01221,1.89978,0.563466
380,-0.0122,1.89978,0.560292
381,-0.01219,1.89978,0.555531
382,-0.01218,1.89978,0.550769
383,-0.01217,1.89978,0.547595
384,-0.01216,1.89978,0.542834
385,-0.01215,1.89978,0.53966
386,-0.01214,1.89978,0.536486
387,-0.01213,1.89978,0.533312
388,-0.01212,1.89978,0.528551
389,-0.01211,1.89978,0.52379
390,-0.0121,1.89978,0.520616
391,-0.01209,1.89978,0.514267
392,-0.01208,1.91648,0.511093
393,-0.01207,1.91648,0.507919
394,-0.01206,1.88307,0.504745
395,-0.01205,1.88307,0.498397
396,-0.01204,1.91648,0.495223
397,-0.01203,1.89978,0.492049
398,-0.01202,1.89978,0.488875
399,-0.01201,1.89978,0.4857
400,-0.012,1.89978,0.479352
401,-0.01199,1.88307,0.474591
402,-0.01198,1.88307,0.473004
403,-0.01197,1.88307,0.466656
404,-0.01196,1.88307,0.463482
405,-0.01195,1.88307,0.460308
406,-0.01194,1.88307,0.457134
407,-0.01193,1.88307,0.45396
408,-0.01192,1.88307,0.446024
409,-0.01191,1.88307,0.44285
410,-0.0119,1.88307,0.439676
411,-0.01189,1.88307,0.436502
412,-0.01188,1.89978,0.431741
413,-0.01187,1.86637,0.428567
414,-0.01186,1.89978,0.423806
415,-0.01185,1.88307,0.420632
416,-0.01184,1.88307,0.41587
417,-0.01183,1.86637,0.412696
418,-0.01182,1.86637,0.409522
419,-0.01181,1.86637,0.403174
420,-0.0118,1.88307,0.401587
421,-0.01179,1.88307,0.395239
422,-0.01178,1.88307,0.392065
423,-0.01177,1.89978,0.388891
424,-0.01176,1.86637,0.38413
425,-0.01175,1.86637,0.380955
426,-0.01174,1.86637,0.377781
427,-0.01173,1.86637,0.371433
428,-0.01172,1.86637,0.368259
429,-0.01171,1.86637,0.361911
430,-0.0117,1.84967,0.358737
431,-0.01169,1.84967,0.355563
432,-0.01168,1.84967,0.352389
433,-0.01167,1.84967,0.349215
434,-0.01166,1.84967,0.342866
435,-0.01165,1.84967,0.339692
436,-0.01164,1.84967,0.336518
437,-0.01163,1.84967,0.331757
438,-0.01162,1.86637,0.328583
439,-0.01161,1.83296,0.325409
440,-0.0116,1.86637,0.317474
441,-0.01159,1.84967,0.315887
442,-0.01158,1.84967,0.312712
443,-0.01157,1.84967,0.309538
444,-0.01156,1.84967,0.306364
445,-0.01155,1.84967,0.301603
446,-0.01154,1.84967,0.298429
447,-0.01153,1.84967,0.293668
448,-0.01152,1.84967,0.288907
449,-0.01151,1.84967,0.285733
450,-0.0115,1.84967,0.282559
451,-0.01149,1.84967,0.277797
452,-0.01148,1.84967,0.274623
453,-0.01147,1.83296,0.268275
454,-0.01146,1.83296,0.265101
455,-0.01145,1.83296,0.261927
456,-0.01144,1.83296,0.258753
457,-0.01143,1.83296,0.253992
458,-0.01142,1.83296,0.250818
459,-0.01141,1.83296,0.249231
460,-0.0114,1.83296,0.241295
461,-0.01139,1.83296,0.239708
462,-0.01138,1.83296,0.236534
463,-0.01137,1.83296,0.230186
464,-0.01136,1.83296,0.228599
465,-0.01135,1.81626,0.223838
466,-0.01134,1.81626,0.222251
467,-0.01133,1.83296,0.214316
468,-0.01132,1.83296,0.211141
469,-0.01131,1.81626,0.207967
470,-0.0113,1.81626,0.204793
471,-0.01129,1.81626,0.203206
472,-0.01128,1.81626,0.196858
473,-0.01127,1.81626,0.193684
474,-0.01126,1.81626,0.19051
475,-0.01125,1.81626,0.187336
476,-0.01124,1.81626,0.180988
477,-0.01123,1.81626,0.177814
478,-0.01122,1.79956,0.174639
479,-0.01121,1.79956,0.171465
480,-0.0112,1.79956,0.166704
481,-0.01119,1.79956,0.16353
482,-0.01118,1.79956,0.158769
483,-0.01117,1.79956,0.158769
484,-0.01116,1.79956,0.154008
485,-0.01115,1.79956,0.149247
486,-0.01114,1.79956,0.146073
487,-0.01113,1.79956,0.141311
488,-0.01112,1.79956,0.138137
489,-0.01111,1.79956,0.134963
490,-0.0111,1.79956,0.130202
491,-0.01109,1.78285,0.127028
492,-0.01108,1.78285,0.125441
493,-0.01107,1.78285,0.122267
494,-0.01106,1.78285,0.115919
495,-0.01105,1.78285,0.112745
496,-0.01104,1.78285,0.109571
497,-0.01103,1.78285,0.106396
498,-0.01102,1.78285,0.103222
499,-0.01101,1.78285,0.100048
500,-0.011,1.78285,0.0968742
501,-0.01099,1.78285,0.0937001
502,-0.01098,1.78285,0.0889389
503,-0.01097,1.76615,0.0857648
504,-0.01096,1.76615,0.0825907
505,-0.01095,1.76615,0.0794166
506,-0.01094,1.76615,0.0762426
507,-0.01093,1.76615,0.0730685
508,-0.01092,1.76615,0.0698944
509,-0.01091,1.76615,0.0683073
510,-0.0109,1.78285,0.0635462
511,-0.01089,1.74944,0.0603721
512,-0.01088,1.74944,0.057198
513,-0.01087,1.74944,0.0540239
514,-0.01086,1.74944,0.0524369
515,-0.01085,1.76615,0.0492628
516,-0.01084,1.73274,0.0460887
517,-0.01083,1.73274,0.0429146
518,-0.01082,1.73274,0.0381534
519,-0.01081,1.73274,0.0365664
520,-0.0108,1.73274,0.0333923
521,-0.01079,1.74944,0.0318053
522,-0.01078,1.71604,0.0302182
523,-0.01077,1.71604,0.0270441
524,-0.01076,1.71604,0.02387
525,-0.01075,1.71604,0.02387
526,-0.01074,1.71604,0.022283
527,-0.01073,1.71604,0.0191089
528,-0.01072,1.71604,0.0175218
529,-0.01071,1.71604,0.0127607
530,-0.0107,1.68263,0.0127607
531,-0.01069,1.68263,0.00958661
532,-0.01068,1.68263,0.00799956
533,-0.01067,1.66593,0.00641251
534,-0.01066,1.66593,0.00482547
535,-0.01065,1.66593,0.00482547
536,-0.01064,1.64922,0.00482547
537,-0.01063,1.64922,0.00165137
538,-0.01062,1.66593,0.00323842
539,-0.01061,1.63252,6.43283e-05
540,-0.0106,1.63252,6.43283e-05
541,-0.01059,1.63252,6.43283e-05
542,-0.01058,1.63252,-0.00152272
543,-0.01057,1.63252,-0.00152272
544,-0.01056,1.61581,-0.00152272
545,-0.01055,1.63252,-0.00152272
546,-0.01054,1.59911,-0.00310976
547,-0.01053,1.59911,-0.00310976
548,-0.01052,1.58241,-0.00152272
549,-0.01051,1.58241,-0.00469681
550,-0.0105,1.58241,-0.00469681
551,-0.01049,1.5657,-0.00469681
552,-0.01048,1.5657,-0.00469681
553,-0.01047,1.549,-0.00469681
554,-0.01046,1.549,-0.00469681
555,-0.01045,1.549,-0.00469681
556,-0.01044,1.5323,-0.00469681
557,-0.01043,1.5323,-0.00469681
558,-0.01042,1.5323,-0.00469681
559,-0.01041,1.5323,-0.00469681
560,-0.0104,1.49889,-0.00469681
561,-0.01039,1.49889,-0.00469681
562,-0.01038,1.51559,-0.00469681
563,-0.01037,1.48218,-0.00469681
564,-0.01036,1.49889,-0.00469681
565,-0.01035,1.46548,-0.00469681
566,-0.01034,1.46548,-0.00469681
567,-0.01033,1.46548,-0.00469681
568,-0.01032,1.44878,-0.00469681
569,-0.01031,1.46548,-0.00469681
570,-0.0103,1.43207,-0.00469681
571,-0.01029,1.43207,-0.00469681
572,-0.01028,1.44878,-0.00469681
573,-0.01027,1.39867,-0.00469681
574,-0.01026,1.39867,-0.00469681
575,-0.01025,1.39867,-0.00469681
576,-0.01024,1.38196,-0.00469681
577,-0.01023,1.39867,-0.00469681
578,-0.01022,1.36526,-0.00469681
579,-0.01021,1.36526,-0.00469681
580,-0.0102,1.36526,-0.00469681
581,-0.01019,1.34855,-0.00469681
582,-0.01018,1.36526,-0.00469681
583,-0.01017,1.33185,-0.00469681
584,-0.01016,1.34855,-0.00469681
585,-0.01015,1.31515,-0.00469681
586,-0.01014,1.31515,-0.00469681
587,-0.01013,1.31515,-0.00469681
588,-0.01012,1.31515,-0.00469681
589,-0.01011,1.29844,-0.00469681
590,-0.0101,1.31515,-0.00469681
591,-0.01009,1.28174,-0.00469681
592,-0.01008,1.28174,-0.00469681
593,-0.01007,1.28174,-0.00469681
594,-0.01006,1.26504,-0.00469681
595,-0.01005,1.28174,-0.00469681
596,-0.01004,1.24833,-0.00469681
597,-0.01003,1.24833,-0.00469681
598,-0.01002,1.24833,-0.00469681
599,-0.01001,1.23163,-0.00469681
600,-0.01,1.23163,-0.00469681
601,-0.00999,1.23163,-0.00469681
602,-0.00998,1.21493,-0.00469681
603,-0.00997,1.21493,-0.00469681
604,-0.00996,1.19822,-0.00469681
605,-0.00995,1.21493,-0.00469681
606,-0.00994,1.18152,-0.00469681
607,-0.00993,1.18152,-0.00469681
608,-0.00992,1.18152,-0.00469681
609,-0.00991,1.16481,-0.00469681
610,-0.0099,1.18152,-0.00469681
611,-0.00989,1.14811,-0.00469681
612,-0.00988,1.14811,-0.00469681
613,-0.00987,1.14811,-0.00469681
614,-0.00986,1.14811,-0.00469681
615,-0.00985,1.1147,-0.00469681
616,-0.00984,1.1147,-0.00469681
617,-0.00983,1.098,-0.00469681
618,-0.00982,1.1147,-0.00469681
619,-0.00981,1.0813,-0.00469681
620,-0.0098,1.0813,-0.00469681
621,-0.00979,1.0813,-0.00469681
622,-0.00978,1.06459,-0.00469681
623,-0.00977,1.06459,-0.00469681
624,-0.00976,1.06459,-0.00469681
625,-0.00975,1.04789,-0.00469681
626,-0.00974,1.06459,-0.00469681
627,-0.00973,1.03118,-0.00469681
628,-0.00972,1.04789,-0.00469681
629,-0.00971,1.01448,-0.00469681
630,-0.0097,1.01448,-0.00469681
631,-0.00969,1.01448,-0.00469681
632,-0.00968,1.01448,-0.00310976
633,-0.00967,0.997777,-0.00310976
634,-0.00966,0.997777,-0.00469681
635,-0.00965,0.981073,-0.00469681
636,-0.00964,0.997777,-0.00469681
637,-0.00963,0.964369,-0.00469681
638,-0.00962,0.981073,-0.00469681
639,-0.00961,0.947666,-0.00469681
640,-0.0096,0.947666,-0.00469681
641,-0.00959,0.947666,-0.00469681
642,-0.00958,0.947666,-0.00469681
643,-0.00957,0.930962,-0.00469681
644,-0.00956,0.947666,-0.00469681
645,-0.00955,0.914258,-0.00469681
646,-0.00954,0.930962,-0.00469681
647,-0.00953,0.897554,-0.00469681
648,-0.00952,0.897554,-0.00310976
649,-0.00951,0.897554,-0.00310976
650,-0.0095,0.914258,-0.00310976
651,-0.00949,0.880851,-0.00310976
652,-0.00948,0.897554,-0.00310976
653,-0.00947,0.864147,-0.00310976
654,-0.00946,0.880851,-0.00469681
