3a_experiments/Lab_1_introduction/results/csv/red_diode_i_v.csv

;Scopy version,f4beeb1
;Exported on,Thursday September 19/09/2024
;Device,M2K
;Nr of samples,3200
;Sample rate,100000
;Tool,Oscilloscope
;Additional Information,
Sample,Time(S),CH1(V),CH2(V)
0,-0.016,1.38196,-0.00310976
1,-0.01599,1.43207,-0.00310976
2,-0.01598,1.39867,-0.00310976
3,-0.01597,1.39867,6.43283e-05
4,-0.01596,1.44878,-0.00152272
5,-0.01595,1.43207,-0.00152272
6,-0.01594,1.43207,0.00165137
7,-0.01593,1.46548,6.43283e-05
8,-0.01592,1.44878,0.00165137
9,-0.01591,1.44878,0.00165137
10,-0.0159,1.48218,0.00482547
11,-0.01589,1.46548,0.00482547
12,-0.01588,1.46548,0.00482547
13,-0.01587,1.48218,0.00799956
14,-0.01586,1.46548,0.00799956
15,-0.01585,1.48218,0.00958661
16,-0.01584,1.48218,0.0111737
17,-0.01583,1.48218,0.0127607
18,-0.01582,1.49889,0.0143477
19,-0.01581,1.49889,0.0175218
20,-0.0158,1.49889,0.0206959
21,-0.01579,1.5323,0.022283
22,-0.01578,1.51559,0.022283
23,-0.01577,1.51559,0.0254571
24,-0.01576,1.51559,0.0286312
25,-0.01575,1.549,0.0286312
26,-0.01574,1.5323,0.0318053
27,-0.01573,1.5323,0.0349793
28,-0.01572,1.5323,0.0381534
29,-0.01571,1.5323,0.0397405
30,-0.0157,1.5323,0.0445016
31,-0.01569,1.5657,0.0460887
32,-0.01568,1.549,0.0492628
33,-0.01567,1.549,0.0524369
34,-0.01566,1.549,0.055611
35,-0.01565,1.549,0.057198
36,-0.01564,1.549,0.0603721
37,-0.01563,1.5657,0.0635462
38,-0.01562,1.5657,0.0683073
39,-0.01561,1.5657,0.0714814
40,-0.0156,1.5657,0.0730685
41,-0.01559,1.5657,0.0762426
42,-0.01558,1.5657,0.0794166
43,-0.01557,1.5657,0.0825907
44,-0.01556,1.5657,0.0857648
45,-0.01555,1.5657,0.0873519
46,-0.01554,1.5657,0.090526
47,-0.01553,1.5657,0.0952871
48,-0.01552,1.58241,0.0984612
49,-0.01551,1.58241,0.101635
50,-0.0155,1.58241,0.104809
51,-0.01549,1.58241,0.107983
52,-0.01548,1.58241,0.112745
53,-0.01547,1.58241,0.115919
54,-0.01546,1.58241,0.117506
55,-0.01545,1.59911,0.123854
56,-0.01544,1.59911,0.127028
57,-0.01543,1.59911,0.130202
58,-0.01542,1.59911,0.131789
59,-0.01541,1.59911,0.138137
60,-0.0154,1.59911,0.139724
61,-0.01539,1.59911,0.142898
62,-0.01538,1.59911,0.14766
63,-0.01537,1.59911,0.150834
64,-0.01536,1.59911,0.154008
65,-0.01535,1.59911,0.160356
66,-0.01534,1.59911,0.161943
67,-0.01533,1.59911,0.165117
68,-0.01532,1.59911,0.168291
69,-0.01531,1.63252,0.176226
70,-0.0153,1.61581,0.177814
71,-0.01529,1.61581,0.180988
72,-0.01528,1.61581,0.184162
73,-0.01527,1.61581,0.187336
74,-0.01526,1.61581,0.193684
75,-0.01525,1.61581,0.196858
76,-0.01524,1.61581,0.201619
77,-0.01523,1.61581,0.204793
78,-0.01522,1.61581,0.207967
79,-0.01521,1.61581,0.211141
80,-0.0152,1.63252,0.215903
81,-0.01519,1.63252,0.219077
82,-0.01518,1.63252,0.223838
83,-0.01517,1.63252,0.228599
84,-0.01516,1.63252,0.231773
85,-0.01515,1.63252,0.234947
86,-0.01514,1.61581,0.236534
87,-0.01513,1.64922,0.242882
88,-0.01512,1.63252,0.247644
89,-0.01511,1.63252,0.250818
90,-0.0151,1.63252,0.255579
91,-0.01509,1.63252,0.258753
92,-0.01508,1.63252,0.263514
93,-0.01507,1.63252,0.263514
94,-0.01506,1.63252,0.269862
95,-0.01505,1.63252,0.273036
96,-0.01504,1.63252,0.279384
97,-0.01503,1.63252,0.282559
98,-0.01502,1.63252,0.285733
99,-0.01501,1.63252,0.28732
100,-0.015,1.66593,0.293668
101,-0.01499,1.64922,0.298429
102,-0.01498,1.64922,0.301603
103,-0.01497,1.64922,0.306364
104,-0.01496,1.64922,0.307951
105,-0.01495,1.64922,0.314299
106,-0.01494,1.64922,0.317474
107,-0.01493,1.64922,0.320648
108,-0.01492,1.64922,0.326996
109,-0.01491,1.64922,0.33017
110,-0.0149,1.64922,0.333344
111,-0.01489,1.64922,0.334931
112,-0.01488,1.64922,0.341279
113,-0.01487,1.64922,0.344453
114,-0.01486,1.68263,0.349215
115,-0.01485,1.66593,0.353976
116,-0.01484,1.66593,0.35715
117,-0.01483,1.66593,0.360324
118,-0.01482,1.66593,0.365085
119,-0.01481,1.66593,0.368259
120,-0.0148,1.66593,0.371433
121,-0.01479,1.66593,0.376194
122,-0.01478,1.66593,0.380955
123,-0.01477,1.66593,0.38413
124,-0.01476,1.66593,0.388891
125,-0.01475,1.66593,0.392065
126,-0.01474,1.68263,0.395239
127,-0.01473,1.64922,0.4
128,-0.01472,1.66593,0.404761
129,-0.01471,1.66593,0.407935
130,-0.0147,1.66593,0.412696
131,-0.01469,1.66593,0.417458
132,-0.01468,1.66593,0.419045
133,-0.01467,1.68263,0.42698
134,-0.01466,1.68263,0.428567
135,-0.01465,1.68263,0.434915
136,-0.01464,1.73274,0.439676
137,-0.01463,1.68263,0.44285
138,-0.01462,1.68263,0.446024
139,-0.01461,1.68263,0.449198
140,-0.0146,1.68263,0.45396
141,-0.01459,1.68263,0.458721
142,-0.01458,1.68263,0.461895
143,-0.01457,1.68263,0.465069
144,-0.01456,1.68263,0.46983
145,-0.01455,1.66593,0.473004
146,-0.01454,1.71604,0.479352
147,-0.01453,1.68263,0.4857
148,-0.01452,1.68263,0.487288
149,-0.01451,1.68263,0.490462
150,-0.0145,1.68263,0.495223
151,-0.01449,1.68263,0.498397
152,-0.01448,1.68263,0.504745
153,-0.01447,1.68263,0.507919
154,-0.01446,1.68263,0.511093
155,-0.01445,1.68263,0.517441
156,-0.01444,1.68263,0.519028
157,-0.01443,1.68263,0.52379
158,-0.01442,1.68263,0.528551
159,-0.01441,1.73274,0.533312
160,-0.0144,1.71604,0.536486
161,-0.01439,1.73274,0.53966
162,-0.01438,1.68263,0.542834
163,-0.01437,1.71604,0.547595
164,-0.01436,1.71604,0.555531
165,-0.01435,1.71604,0.557118
166,-0.01434,1.71604,0.561879
167,-0.01433,1.71604,0.565053
168,-0.01432,1.71604,0.568227
169,-0.01431,1.71604,0.574575
170,-0.0143,1.71604,0.579336
171,-0.01429,1.71604,0.580923
172,-0.01428,1.71604,0.587271
173,-0.01427,1.71604,0.590446
174,-0.01426,1.71604,0.59362
175,-0.01425,1.71604,0.596794
176,-0.01424,1.71604,0.604729
177,-0.01423,1.71604,0.607903
178,-0.01422,1.71604,0.612664
179,-0.01421,1.71604,0.615838
180,-0.0142,1.71604,0.617425
181,-0.01419,1.73274,0.623774
182,-0.01418,1.73274,0.626948
183,-0.01417,1.73274,0.633296
184,-0.01416,1.73274,0.634883
185,-0.01415,1.73274,0.641231
186,-0.01414,1.73274,0.642818
187,-0.01413,1.73274,0.649166
188,-0.01412,1.73274,0.65234
189,-0.01411,1.74944,0.657102
190,-0.0141,1.73274,0.661863
191,-0.01409,1.73274,0.665037
192,-0.01408,1.73274,0.669798
193,-0.01407,1.73274,0.671385
194,-0.01406,1.73274,0.677733
195,-0.01405,1.73274,0.682494
196,-0.01404,1.73274,0.687255
197,-0.01403,1.73274,0.690429
198,-0.01402,1.73274,0.693604
199,-0.01401,1.73274,0.696778
200,-0.014,1.73274,0.703126
201,-0.01399,1.73274,0.707887
202,-0.01398,1.73274,0.711061
203,-0.01397,1.73274,0.715822
204,-0.01396,1.73274,0.720583
205,-0.01395,1.73274,0.723757
206,-0.01394,1.73274,0.726932
207,-0.01393,1.73274,0.730106
208,-0.01392,1.73274,0.734867
209,-0.01391,1.73274,0.741215
210,-0.0139,1.74944,0.744389
211,-0.01389,1.74944,0.74915
212,-0.01388,1.74944,0.753911
213,-0.01387,1.74944,0.758672
214,-0.01386,1.74944,0.763434
215,-0.01385,1.76615,0.766608
216,-0.01384,1.73274,0.769782
217,-0.01383,1.74944,0.774543
218,-0.01382,1.74944,0.777717
219,-0.01381,1.74944,0.780891
220,-0.0138,1.74944,0.787239
221,-0.01379,1.74944,0.793588
222,-0.01378,1.74944,0.796762
223,-0.01377,1.74944,0.799936
224,-0.01376,1.74944,0.80311
225,-0.01375,1.74944,0.809458
226,-0.01374,1.74944,0.812632
227,-0.01373,1.74944,0.817393
228,-0.01372,1.74944,0.820567
229,-0.01371,1.74944,0.825328
230,-0.0137,1.74944,0.828502
231,-0.01369,1.74944,0.831677
232,-0.01368,1.74944,0.839612
233,-0.01367,1.74944,0.841199
234,-0.01366,1.74944,0.84596
235,-0.01365,1.78285,0.852308
236,-0.01364,1.74944,0.853895
237,-0.01363,1.76615,0.860243
238,-0.01362,1.74944,0.863418
239,-0.01361,1.76615,0.866592
240,-0.0136,1.78285,0.87294
241,-0.01359,1.74944,0.874527
242,-0.01358,1.74944,0.879288
243,-0.01357,1.76615,0.882462
244,-0.01356,1.76615,0.890397
245,-0.01355,1.76615,0.893571
246,-0.01354,1.76615,0.896746
247,-0.01353,1.76615,0.89992
248,-0.01352,1.76615,0.906268
249,-0.01351,1.76615,0.907855
250,-0.0135,1.76615,0.912616
251,-0.01349,1.76615,0.918964
252,-0.01348,1.76615,0.922138
253,-0.01347,1.76615,0.926899
254,-0.01346,1.76615,0.930073
255,-0.01345,1.76615,0.936422
256,-0.01344,1.76615,0.939596
257,-0.01343,1.76615,0.94277
258,-0.01342,1.76615,0.949118
259,-0.01341,1.76615,0.952292
260,-0.0134,1.76615,0.953879
261,-0.01339,1.76615,0.961814
262,-0.01338,1.76615,0.963401
263,-0.01337,1.76615,0.96975
264,-0.01336,1.76615,0.972924
265,-0.01335,1.76615,0.976098
266,-0.01334,1.76615,0.979272
267,-0.01333,1.78285,0.987207
268,-0.01332,1.78285,0.991968
269,-0.01331,1.78285,0.995142
270,-0.0133,1.78285,0.998316
271,-0.01329,1.78285,1.00308
272,-0.01328,1.78285,1.00466
273,-0.01327,1.78285,1.01101
274,-0.01326,1.78285,1.01577
275,-0.01325,1.79956,1.02054
276,-0.01324,1.76615,1.02212
277,-0.01323,1.78285,1.02847
278,-0.01322,1.78285,1.03006
279,-0.01321,1.78285,1.03641
280,-0.0132,1.78285,1.04117
281,-0.01319,1.78285,1.04593
282,-0.01318,1.78285,1.0491
283,-0.01317,1.78285,1.05228
284,-0.01316,1.78285,1.05545
285,-0.01315,1.78285,1.0618
286,-0.01314,1.78285,1.06656
287,-0.01313,1.78285,1.07132
288,-0.01312,1.78285,1.07132
289,-0.01311,1.78285,1.06656
290,-0.0131,1.78285,1.0618
291,-0.01309,1.78285,1.05545
292,-0.01308,1.78285,1.05228
293,-0.01307,1.78285,1.0491
294,-0.01306,1.78285,1.04593
295,-0.01305,1.78285,1.03958
296,-0.01304,1.78285,1.03641
297,-0.01303,1.78285,1.03006
298,-0.01302,1.78285,1.02688
299,-0.01301,1.76615,1.02371
300,-0.013,1.79956,1.02054
301,-0.01299,1.78285,1.01419
302,-0.01298,1.78285,1.01101
303,-0.01297,1.78285,1.00466
304,-0.01296,1.78285,1.00149
305,-0.01295,1.76615,0.998316
306,-0.01294,1.76615,0.993555
307,-0.01293,1.76615,0.990381
308,-0.01292,1.76615,0.984033
309,-0.01291,1.76615,0.980859
310,-0.0129,1.76615,0.976098
311,-0.01289,1.76615,0.972924
312,-0.01288,1.76615,0.96975
313,-0.01287,1.76615,0.963401
314,-0.01286,1.76615,0.961814
315,-0.01285,1.76615,0.957053
316,-0.01284,1.76615,0.950705
317,-0.01283,1.76615,0.947531
318,-0.01282,1.76615,0.944357
319,-0.01281,1.76615,0.938009
320,-0.0128,1.76615,0.936422
321,-0.01279,1.76615,0.928486
322,-0.01278,1.76615,0.925312
323,-0.01277,1.76615,0.922138
324,-0.01276,1.76615,0.917377
325,-0.01275,1.76615,0.914203
326,-0.01274,1.76615,0.907855
327,-0.01273,1.76615,0.906268
328,-0.01272,1.76615,0.89992
329,-0.01271,1.76615,0.896746
330,-0.0127,1.76615,0.893571
331,-0.01269,1.76615,0.88881
332,-0.01268,1.76615,0.885636
333,-0.01267,1.76615,0.879288
334,-0.01266,1.76615,0.877701
335,-0.01265,1.78285,0.871353
336,-0.01264,1.74944,0.868179
337,-0.01263,1.74944,0.863418
338,-0.01262,1.74944,0.86183
339,-0.01261,1.74944,0.853895
340,-0.0126,1.74944,0.852308
341,-0.01259,1.74944,0.84596
342,-0.01258,1.74944,0.841199
343,-0.01257,1.74944,0.838025
344,-0.01256,1.74944,0.836438
345,-0.01255,1.74944,0.828502
346,-0.01254,1.74944,0.825328
347,-0.01253,1.74944,0.822154
348,-0.01252,1.74944,0.817393
349,-0.01251,1.74944,0.815806
350,-0.0125,1.74944,0.809458
351,-0.01249,1.74944,0.80311
352,-0.01248,1.74944,0.801523
353,-0.01247,1.74944,0.796762
354,-0.01246,1.74944,0.792
355,-0.01245,1.74944,0.788826
356,-0.01244,1.74944,0.784065
357,-0.01243,1.76615,0.779304
358,-0.01242,1.74944,0.77613
359,-0.01241,1.74944,0.771369
360,-0.0124,1.74944,0.768195
361,-0.01239,1.74944,0.763434
362,-0.01238,1.74944,0.76026
363,-0.01237,1.76615,0.753911
364,-0.01236,1.73274,0.750737
365,-0.01235,1.73274,0.745976
366,-0.01234,1.73274,0.742802
367,-0.01233,1.73274,0.738041
368,-0.01232,1.73274,0.73328
369,-0.01231,1.74944,0.728519
370,-0.0123,1.74944,0.725344
371,-0.01229,1.73274,0.720583
372,-0.01228,1.74944,0.717409
373,-0.01227,1.74944,0.712648
374,-0.01226,1.73274,0.709474
375,-0.01225,1.73274,0.704713
376,-0.01224,1.73274,0.698365
377,-0.01223,1.73274,0.695191
378,-0.01222,1.73274,0.692017
379,-0.01221,1.73274,0.688842
380,-0.0122,1.73274,0.684081
381,-0.01219,1.73274,0.680907
382,-0.01218,1.73274,0.672972
383,-0.01217,1.73274,0.671385
384,-0.01216,1.73274,0.668211
385,-0.01215,1.73274,0.661863
386,-0.01214,1.73274,0.658689
387,-0.01213,1.73274,0.655514
388,-0.01212,1.73274,0.650753
389,-0.01211,1.73274,0.645992
390,-0.0121,1.73274,0.641231
391,-0.01209,1.73274,0.638057
392,-0.01208,1.73274,0.634883
393,-0.01207,1.73274,0.630122
394,-0.01206,1.71604,0.625361
395,-0.01205,1.71604,0.620599
396,-0.01204,1.71604,0.617425
397,-0.01203,1.71604,0.614251
398,-0.01202,1.71604,0.60949
399,-0.01201,1.71604,0.606316
400,-0.012,1.71604,0.599968
401,-0.01199,1.71604,0.596794
402,-0.01198,1.71604,0.59362
403,-0.01197,1.71604,0.587271
404,-0.01196,1.71604,0.585684
405,-0.01195,1.71604,0.58251
406,-0.01194,1.71604,0.574575
407,-0.01193,1.71604,0.571401
408,-0.01192,1.71604,0.568227
409,-0.01191,1.71604,0.561879
410,-0.0119,1.71604,0.558705
411,-0.01189,1.71604,0.557118
412,-0.01188,1.71604,0.549182
413,-0.01187,1.71604,0.547595
414,-0.01186,1.68263,0.541247
415,-0.01185,1.68263,0.538073
416,-0.01184,1.68263,0.534899
417,-0.01183,1.68263,0.530138
418,-0.01182,1.68263,0.525377
419,-0.01181,1.68263,0.520616
420,-0.0118,1.68263,0.517441
421,-0.01179,1.71604,0.514267
422,-0.01178,1.71604,0.509506
423,-0.01177,1.68263,0.507919
424,-0.01176,1.68263,0.499984
425,-0.01175,1.68263,0.49681
426,-0.01174,1.68263,0.492049
427,-0.01173,1.68263,0.488875
428,-0.01172,1.68263,0.484113
429,-0.01171,1.68263,0.482526
430,-0.0117,1.68263,0.474591
431,-0.01169,1.68263,0.471417
432,-0.01168,1.68263,0.468243
433,-0.01167,1.68263,0.466656
434,-0.01166,1.71604,0.460308
435,-0.01165,1.66593,0.455547
436,-0.01164,1.66593,0.452373
437,-0.01163,1.66593,0.449198
438,-0.01162,1.66593,0.44285
439,-0.01161,1.66593,0.439676
440,-0.0116,1.66593,0.436502
441,-0.01159,1.66593,0.431741
442,-0.01158,1.66593,0.428567
443,-0.01157,1.66593,0.422219
444,-0.01156,1.66593,0.419045
445,-0.01155,1.66593,0.41587
446,-0.01154,1.66593,0.411109
447,-0.01153,1.66593,0.407935
448,-0.01152,1.66593,0.403174
449,-0.01151,1.66593,0.4
450,-0.0115,1.66593,0.395239
451,-0.01149,1.66593,0.392065
452,-0.01148,1.66593,0.385717
453,-0.01147,1.66593,0.382542
454,-0.01146,1.66593,0.379368
455,-0.01145,1.66593,0.376194
456,-0.01144,1.66593,0.371433
457,-0.01143,1.66593,0.366672
458,-0.01142,1.66593,0.363498
459,-0.01141,1.66593,0.358737
460,-0.0114,1.64922,0.353976
461,-0.01139,1.64922,0.350802
462,-0.01138,1.64922,0.34604
463,-0.01137,1.64922,0.341279
464,-0.01136,1.64922,0.338105
465,-0.01135,1.64922,0.334931
466,-0.01134,1.64922,0.331757
467,-0.01133,1.64922,0.325409
468,-0.01132,1.66593,0.323822
469,-0.01131,1.63252,0.319061
470,-0.0113,1.66593,0.315887
471,-0.01129,1.64922,0.309538
472,-0.01128,1.64922,0.307951
473,-0.01127,1.64922,0.304777
474,-0.01126,1.64922,0.301603
475,-0.01125,1.64922,0.298429
476,-0.01124,1.64922,0.290494
477,-0.01123,1.64922,0.288907
478,-0.01122,1.64922,0.284146
479,-0.01121,1.64922,0.280972
480,-0.0112,1.64922,0.277797
481,-0.01119,1.64922,0.273036
482,-0.01118,1.64922,0.268275
483,-0.01117,1.64922,0.265101
484,-0.01116,1.63252,0.261927
485,-0.01115,1.63252,0.255579
486,-0.01114,1.63252,0.253992
487,-0.01113,1.63252,0.249231
488,-0.01112,1.63252,0.244469
489,-0.01111,1.63252,0.239708
490,-0.0111,1.61581,0.236534
491,-0.01109,1.63252,0.23336
492,-0.01108,1.63252,0.230186
493,-0.01107,1.61581,0.227012
494,-0.01106,1.64922,0.222251
495,-0.01105,1.61581,0.21749
496,-0.01104,1.61581,0.214316
497,-0.01103,1.61581,0.209554
498,-0.01102,1.61581,0.20638
499,-0.01101,1.61581,0.203206
500,-0.011,1.61581,0.200032
501,-0.01099,1.61581,0.196858
502,-0.01098,1.61581,0.192097
503,-0.01097,1.61581,0.188923
504,-0.01096,1.61581,0.182575
505,-0.01095,1.61581,0.182575
506,-0.01094,1.61581,0.176226
507,-0.01093,1.61581,0.174639
508,-0.01092,1.61581,0.166704
509,-0.01091,1.59911,0.165117
510,-0.0109,1.61581,0.161943
511,-0.01089,1.61581,0.158769
512,-0.01088,1.59911,0.152421
513,-0.01087,1.59911,0.149247
514,-0.01086,1.59911,0.14766
515,-0.01085,1.59911,0.141311
516,-0.01084,1.59911,0.138137
517,-0.01083,1.59911,0.134963
518,-0.01082,1.59911,0.131789
519,-0.01081,1.59911,0.128615
520,-0.0108,1.58241,0.125441
521,-0.01079,1.58241,0.12068
522,-0.01078,1.58241,0.12068
523,-0.01077,1.58241,0.114332
524,-0.01076,1.58241,0.111158
525,-0.01075,1.58241,0.106396
526,-0.01074,1.58241,0.103222
527,-0.01073,1.58241,0.103222
528,-0.01072,1.58241,0.0984612
529,-0.01071,1.58241,0.0952871
530,-0.0107,1.5657,0.090526
531,-0.01069,1.5657,0.0873519
532,-0.01068,1.5657,0.0841778
533,-0.01067,1.5657,0.0810037
534,-0.01066,1.5657,0.0778296
535,-0.01065,1.5657,0.0746555
536,-0.01064,1.58241,0.0746555
537,-0.01063,1.549,0.0683073
538,-0.01062,1.549,0.0635462
539,-0.01061,1.549,0.0603721
540,-0.0106,1.549,0.058785
541,-0.01059,1.549,0.055611
542,-0.01058,1.549,0.0540239
543,-0.01057,1.549,0.0508498
544,-0.01056,1.549,0.0476757
545,-0.01055,1.549,0.0460887
546,-0.01054,1.549,0.0429146
547,-0.01053,1.5323,0.0397405
548,-0.01052,1.5323,0.0365664
549,-0.01051,1.5323,0.0349793
550,-0.0105,1.5323,0.0318053
551,-0.01049,1.51559,0.0302182
552,-0.01048,1.51559,0.0270441
553,-0.01047,1.51559,0.0254571
554,-0.01046,1.51559,0.02387
555,-0.01045,1.51559,0.0206959
556,-0.01044,1.51559,0.0191089
557,-0.01043,1.48218,0.0175218
558,-0.01042,1.48218,0.0127607
559,-0.01041,1.48218,0.0111737
560,-0.0104,1.49889,0.00958661
561,-0.01039,1.46548,0.00799956
562,-0.01038,1.48218,0.00799956
563,-0.01037,1.46548,0.00641251
564,-0.01036,1.46548,0.00641251
565,-0.01035,1.48218,0.00323842
566,-0.01034,1.44878,0.00323842
567,-0.01033,1.44878,0.00165137
568,-0.01032,1.46548,0.00165137
569,-0.01031,1.43207,6.43283e-05
570,-0.0103,1.43207,0.00165137
571,-0.01029,1.44878,-0.00152272
572,-0.01028,1.39867,-0.00152272
573,-0.01027,1.39867,-0.00152272
574,-0.01026,1.39867,-0.00152272
575,-0.01025,1.39867,-0.00310976
576,-0.01024,1.38196,-0.00310976
577,-0.01023,1.38196,-0.00310976
578,-0.01022,1.36526,-0.00310976
579,-0.01021,1.36526,-0.00310976
580,-0.0102,1.36526,-0.00310976
581,-0.01019,1.34855,-0.00310976
582,-0.01018,1.34855,-0.00469681
583,-0.01017,1.33185,-0.00469681
584,-0.01016,1.33185,-0.00469681
585,-0.01015,1.31515,-0.00469681
586,-0.01014,1.31515,-0.00469681
587,-0.01013,1.31515,-0.00469681
588,-0.01012,1.29844,-0.00469681
589,-0.01011,1.29844,-0.00469681
590,-0.0101,1.29844,-0.00469681
591,-0.01009,1.28174,-0.00469681
592,-0.01008,1.29844,-0.00469681
593,-0.01007,1.26504,-0.00469681
594,-0.01006,1.26504,-0.00469681
595,-0.01005,1.26504,-0.00469681
596,-0.01004,1.24833,-0.00469681
597,-0.01003,1.24833,-0.00469681
598,-0.01002,1.24833,-0.00469681
599,-0.01001,1.23163,-0.00469681
600,-0.01,1.24833,-0.00469681
601,-0.00999,1.21493,-0.00469681
602,-0.00998,1.23163,-0.00469681
603,-0.00997,1.19822,-0.00469681
604,-0.00996,1.19822,-0.00469681
605,-0.00995,1.21493,-0.00469681
606,-0.00994,1.18152,-0.00469681
607,-0.00993,1.18152,-0.00469681
608,-0.00992,1.18152,-0.00469681
609,-0.00991,1.16481,-0.00469681
610,-0.0099,1.18152,-0.00469681
611,-0.00989,1.14811,-0.00469681
612,-0.00988,1.14811,-0.00469681
613,-0.00987,1.14811,-0.00469681
614,-0.00986,1.14811,-0.00469681
615,-0.00985,1.1147,-0.00469681
616,-0.00984,1.1147,-0.00469681
617,-0.00983,1.098,-0.00469681
618,-0.00982,1.098,-0.00469681
619,-0.00981,1.098,-0.00469681
620,-0.0098,1.098,-0.00469681
621,-0.00979,1.06459,-0.00469681
622,-0.00978,1.06459,-0.00469681
623,-0.00977,1.0813,-0.00469681
624,-0.00976,1.04789,-0.00469681
625,-0.00975,1.04789,-0.00469681
626,-0.00974,1.04789,-0.00469681
627,-0.00973,1.03118,-0.00469681
628,-0.00972,1.04789,-0.00469681
629,-0.00971,1.01448,-0.00469681
630,-0.0097,1.01448,-0.00469681
631,-0.00969,1.01448,-0.00469681
632,-0.00968,1.01448,-0.00469681
633,-0.00967,0.997777,-0.00469681
634,-0.00966,0.997777,-0.00469681
635,-0.00965,0.981073,-0.00469681
636,-0.00964,0.981073,-0.00469681
637,-0.00963,0.981073,-0.00469681
638,-0.00962,0.964369,-0.00469681
639,-0.00961,0.964369,-0.00469681
640,-0.0096,0.947666,-0.00469681
641,-0.00959,0.947666,-0.00469681
642,-0.00958,0.947666,-0.00469681
643,-0.00957,0.930962,-0.00469681
644,-0.00956,0.947666,-0.00469681
645,-0.00955,0.914258,-0.00469681
646,-0.00954,0.914258,-0.00469681
647,-0.00953,0.914258,-0.00469681
648,-0.00952,0.897554,-0.00310976
649,-0.00951,0.897554,-0.00310976
650,-0.0095,0.897554,-0.00310976
651,-0.00949,0.880851,-0.00310976
652,-0.00948,0.880851,-0.00310976
653,-0.00947,0.864147,-0.00152272
654,-0.00946,0.864147,-0.00469681
655,-0.00945,0.830739,-0.00469681
656,-0.00944,0.830739,-0.00469681
657,-0.00943,0.814036,-0.00469681
