3a_experiments/Lab_1_introduction/results/csv/yellow_diode_i_v.csv

;Scopy version,f4beeb1
;Exported on,Thursday September 19/09/2024
;Device,M2K
;Nr of samples,3200
;Sample rate,100000
;Tool,Oscilloscope
;Additional Information,
Sample,Time(S),CH1(V),CH2(V)
0,-0.016,1.38196,-0.00469681
1,-0.01599,1.43207,-0.00469681
2,-0.01598,1.39867,-0.00469681
3,-0.01597,1.43207,-0.00469681
4,-0.01596,1.43207,-0.00469681
5,-0.01595,1.43207,-0.00469681
6,-0.01594,1.46548,-0.00469681
7,-0.01593,1.44878,-0.00469681
8,-0.01592,1.46548,-0.00469681
9,-0.01591,1.46548,-0.00469681
10,-0.0159,1.46548,-0.00469681
11,-0.01589,1.49889,-0.00469681
12,-0.01588,1.48218,-0.00469681
13,-0.01587,1.48218,-0.00469681
14,-0.01586,1.49889,-0.00469681
15,-0.01585,1.51559,-0.00469681
16,-0.01584,1.49889,-0.00310976
17,-0.01583,1.5323,-0.00310976
18,-0.01582,1.51559,-0.00310976
19,-0.01581,1.549,-0.00310976
20,-0.0158,1.549,-0.00310976
21,-0.01579,1.549,-0.00152272
22,-0.01578,1.549,-0.00152272
23,-0.01577,1.549,-0.00152272
24,-0.01576,1.58241,0.00165137
25,-0.01575,1.5657,6.43283e-05
26,-0.01574,1.58241,0.00323842
27,-0.01573,1.58241,0.00165137
28,-0.01572,1.58241,0.00482547
29,-0.01571,1.58241,0.00482547
30,-0.0157,1.59911,0.00641251
31,-0.01569,1.59911,0.00641251
32,-0.01568,1.59911,0.00799956
33,-0.01567,1.59911,0.00958661
34,-0.01566,1.59911,0.0111737
35,-0.01565,1.63252,0.0127607
36,-0.01564,1.61581,0.0175218
37,-0.01563,1.61581,0.0191089
38,-0.01562,1.63252,0.0191089
39,-0.01561,1.63252,0.022283
40,-0.0156,1.63252,0.0254571
41,-0.01559,1.63252,0.0270441
42,-0.01558,1.64922,0.0286312
43,-0.01557,1.64922,0.0318053
44,-0.01556,1.64922,0.0333923
45,-0.01555,1.64922,0.0365664
46,-0.01554,1.64922,0.0381534
47,-0.01553,1.64922,0.0429146
48,-0.01552,1.64922,0.0445016
49,-0.01551,1.64922,0.0460887
50,-0.0155,1.66593,0.0492628
51,-0.01549,1.66593,0.0524369
52,-0.01548,1.66593,0.055611
53,-0.01547,1.66593,0.058785
54,-0.01546,1.66593,0.0603721
55,-0.01545,1.66593,0.0635462
56,-0.01544,1.66593,0.0683073
57,-0.01543,1.71604,0.0714814
58,-0.01542,1.68263,0.0730685
59,-0.01541,1.68263,0.0762426
60,-0.0154,1.68263,0.0794166
61,-0.01539,1.68263,0.0825907
62,-0.01538,1.68263,0.0857648
63,-0.01537,1.68263,0.0873519
64,-0.01536,1.68263,0.090526
65,-0.01535,1.68263,0.0952871
66,-0.01534,1.68263,0.0984612
67,-0.01533,1.68263,0.101635
68,-0.01532,1.73274,0.107983
69,-0.01531,1.71604,0.109571
70,-0.0153,1.71604,0.112745
71,-0.01529,1.71604,0.115919
72,-0.01528,1.71604,0.12068
73,-0.01527,1.71604,0.123854
74,-0.01526,1.74944,0.127028
75,-0.01525,1.71604,0.130202
76,-0.01524,1.74944,0.133376
77,-0.01523,1.73274,0.13655
78,-0.01522,1.73274,0.142898
79,-0.01521,1.73274,0.146073
80,-0.0152,1.73274,0.149247
81,-0.01519,1.73274,0.152421
82,-0.01518,1.73274,0.155595
83,-0.01517,1.73274,0.158769
84,-0.01516,1.73274,0.161943
85,-0.01515,1.73274,0.165117
86,-0.01514,1.73274,0.171465
87,-0.01513,1.76615,0.174639
88,-0.01512,1.74944,0.177814
89,-0.01511,1.74944,0.180988
90,-0.0151,1.74944,0.184162
91,-0.01509,1.74944,0.19051
92,-0.01508,1.74944,0.19051
93,-0.01507,1.74944,0.193684
94,-0.01506,1.76615,0.201619
95,-0.01505,1.74944,0.203206
96,-0.01504,1.74944,0.20638
97,-0.01503,1.74944,0.209554
98,-0.01502,1.74944,0.212729
99,-0.01501,1.74944,0.219077
100,-0.015,1.74944,0.223838
101,-0.01499,1.76615,0.227012
102,-0.01498,1.76615,0.231773
103,-0.01497,1.76615,0.23336
104,-0.01496,1.76615,0.239708
105,-0.01495,1.76615,0.242882
106,-0.01494,1.76615,0.247644
107,-0.01493,1.76615,0.250818
108,-0.01492,1.76615,0.253992
109,-0.01491,1.76615,0.257166
110,-0.0149,1.76615,0.261927
111,-0.01489,1.76615,0.265101
112,-0.01488,1.76615,0.266688
113,-0.01487,1.76615,0.274623
114,-0.01486,1.76615,0.277797
115,-0.01485,1.76615,0.279384
116,-0.01484,1.76615,0.284146
117,-0.01483,1.76615,0.288907
118,-0.01482,1.76615,0.292081
119,-0.01481,1.76615,0.295255
120,-0.0148,1.76615,0.301603
121,-0.01479,1.79956,0.304777
122,-0.01478,1.78285,0.307951
123,-0.01477,1.78285,0.312712
124,-0.01476,1.78285,0.315887
125,-0.01475,1.78285,0.317474
126,-0.01474,1.78285,0.325409
127,-0.01473,1.78285,0.328583
128,-0.01472,1.78285,0.331757
129,-0.01471,1.78285,0.336518
130,-0.0147,1.78285,0.339692
131,-0.01469,1.78285,0.342866
132,-0.01468,1.78285,0.344453
133,-0.01467,1.78285,0.352389
134,-0.01466,1.78285,0.355563
135,-0.01465,1.81626,0.358737
136,-0.01464,1.78285,0.363498
137,-0.01463,1.79956,0.366672
138,-0.01462,1.79956,0.371433
139,-0.01461,1.79956,0.376194
140,-0.0146,1.79956,0.380955
141,-0.01459,1.79956,0.38413
142,-0.01458,1.79956,0.387304
143,-0.01457,1.79956,0.392065
144,-0.01456,1.81626,0.395239
145,-0.01455,1.78285,0.4
146,-0.01454,1.79956,0.403174
147,-0.01453,1.79956,0.407935
148,-0.01452,1.79956,0.411109
149,-0.01451,1.79956,0.414283
150,-0.0145,1.79956,0.420632
151,-0.01449,1.79956,0.423806
152,-0.01448,1.83296,0.428567
153,-0.01447,1.81626,0.433328
154,-0.01446,1.84967,0.438089
155,-0.01445,1.83296,0.441263
156,-0.01444,1.83296,0.444437
157,-0.01443,1.83296,0.447611
158,-0.01442,1.79956,0.452373
159,-0.01441,1.79956,0.455547
160,-0.0144,1.79956,0.460308
161,-0.01439,1.83296,0.463482
162,-0.01438,1.81626,0.466656
163,-0.01437,1.81626,0.473004
164,-0.01436,1.81626,0.477765
165,-0.01435,1.81626,0.480939
166,-0.01434,1.81626,0.484113
167,-0.01433,1.81626,0.487288
168,-0.01432,1.81626,0.493636
169,-0.01431,1.81626,0.49681
170,-0.0143,1.81626,0.499984
171,-0.01429,1.81626,0.504745
172,-0.01428,1.83296,0.509506
173,-0.01427,1.83296,0.514267
174,-0.01426,1.83296,0.517441
175,-0.01425,1.83296,0.520616
176,-0.01424,1.83296,0.52379
177,-0.01423,1.83296,0.531725
178,-0.01422,1.83296,0.533312
179,-0.01421,1.83296,0.538073
180,-0.0142,1.83296,0.541247
181,-0.01419,1.83296,0.544421
182,-0.01418,1.83296,0.550769
183,-0.01417,1.83296,0.555531
184,-0.01416,1.83296,0.558705
185,-0.01415,1.83296,0.561879
186,-0.01414,1.83296,0.56664
187,-0.01413,1.83296,0.569814
188,-0.01412,1.83296,0.574575
189,-0.01411,1.83296,0.579336
190,-0.0141,1.83296,0.58251
191,-0.01409,1.83296,0.585684
192,-0.01408,1.83296,0.592033
193,-0.01407,1.83296,0.595207
194,-0.01406,1.83296,0.598381
195,-0.01405,1.86637,0.604729
196,-0.01404,1.84967,0.607903
197,-0.01403,1.84967,0.612664
198,-0.01402,1.84967,0.614251
199,-0.01401,1.84967,0.620599
200,-0.014,1.84967,0.625361
201,-0.01399,1.84967,0.625361
202,-0.01398,1.84967,0.633296
203,-0.01397,1.84967,0.634883
204,-0.01396,1.84967,0.641231
205,-0.01395,1.84967,0.644405
206,-0.01394,1.84967,0.647579
207,-0.01393,1.84967,0.65234
208,-0.01392,1.84967,0.657102
209,-0.01391,1.84967,0.661863
210,-0.0139,1.84967,0.666624
211,-0.01389,1.84967,0.668211
212,-0.01388,1.84967,0.674559
213,-0.01387,1.84967,0.677733
214,-0.01386,1.84967,0.682494
215,-0.01385,1.84967,0.685668
216,-0.01384,1.84967,0.688842
217,-0.01383,1.84967,0.695191
218,-0.01382,1.86637,0.698365
219,-0.01381,1.84967,0.701539
220,-0.0138,1.88307,0.707887
221,-0.01379,1.86637,0.711061
222,-0.01378,1.86637,0.714235
223,-0.01377,1.88307,0.720583
224,-0.01376,1.84967,0.723757
225,-0.01375,1.86637,0.726932
226,-0.01374,1.88307,0.730106
227,-0.01373,1.84967,0.736454
228,-0.01372,1.88307,0.739628
229,-0.01371,1.86637,0.744389
230,-0.0137,1.86637,0.747563
231,-0.01369,1.86637,0.752324
232,-0.01368,1.86637,0.755498
233,-0.01367,1.86637,0.761847
234,-0.01366,1.86637,0.765021
235,-0.01365,1.86637,0.769782
236,-0.01364,1.86637,0.772956
237,-0.01363,1.86637,0.77613
238,-0.01362,1.86637,0.780891
239,-0.01361,1.86637,0.785652
240,-0.0136,1.86637,0.790413
241,-0.01359,1.88307,0.793588
242,-0.01358,1.88307,0.798349
243,-0.01357,1.88307,0.801523
244,-0.01356,1.88307,0.809458
245,-0.01355,1.88307,0.811045
246,-0.01354,1.89978,0.817393
247,-0.01353,1.86637,0.81898
248,-0.01352,1.89978,0.822154
249,-0.01351,1.86637,0.826915
250,-0.0135,1.88307,0.83009
251,-0.01349,1.88307,0.836438
252,-0.01348,1.88307,0.839612
253,-0.01347,1.88307,0.844373
254,-0.01346,1.88307,0.847547
255,-0.01345,1.88307,0.850721
256,-0.01344,1.88307,0.857069
257,-0.01343,1.88307,0.86183
258,-0.01342,1.88307,0.865005
259,-0.01341,1.88307,0.868179
260,-0.0134,1.88307,0.871353
261,-0.01339,1.88307,0.877701
262,-0.01338,1.88307,0.880875
263,-0.01337,1.88307,0.885636
264,-0.01336,1.88307,0.891984
265,-0.01335,1.88307,0.893571
266,-0.01334,1.89978,0.89992
267,-0.01333,1.89978,0.901507
268,-0.01332,1.89978,0.907855
269,-0.01331,1.89978,0.911029
270,-0.0133,1.89978,0.914203
271,-0.01329,1.88307,0.917377
272,-0.01328,1.88307,0.923725
273,-0.01327,1.88307,0.928486
274,-0.01326,1.91648,0.930073
275,-0.01325,1.89978,0.938009
276,-0.01324,1.88307,0.941183
277,-0.01323,1.89978,0.944357
278,-0.01322,1.89978,0.947531
279,-0.01321,1.89978,0.952292
280,-0.0132,1.89978,0.955466
281,-0.01319,1.89978,0.963401
282,-0.01318,1.89978,0.966576
283,-0.01317,1.89978,0.968163
284,-0.01316,1.89978,0.974511
285,-0.01315,1.89978,0.977685
286,-0.01314,1.89978,0.982446
287,-0.01313,1.89978,0.987207
288,-0.01312,1.89978,0.987207
289,-0.01311,1.89978,0.982446
290,-0.0131,1.89978,0.976098
291,-0.01309,1.89978,0.972924
292,-0.01308,1.89978,0.96975
293,-0.01307,1.89978,0.966576
294,-0.01306,1.89978,0.961814
295,-0.01305,1.89978,0.957053
296,-0.01304,1.89978,0.952292
297,-0.01303,1.91648,0.947531
298,-0.01302,1.88307,0.944357
299,-0.01301,1.88307,0.939596
300,-0.013,1.91648,0.936422
301,-0.01299,1.91648,0.931661
302,-0.01298,1.88307,0.926899
303,-0.01297,1.88307,0.923725
304,-0.01296,1.88307,0.917377
305,-0.01295,1.88307,0.914203
306,-0.01294,1.88307,0.911029
307,-0.01293,1.88307,0.906268
308,-0.01292,1.88307,0.901507
309,-0.01291,1.88307,0.898333
310,-0.0129,1.88307,0.895158
311,-0.01289,1.88307,0.88881
312,-0.01288,1.88307,0.885636
313,-0.01287,1.88307,0.882462
314,-0.01286,1.88307,0.876114
315,-0.01285,1.88307,0.87294
316,-0.01284,1.88307,0.871353
317,-0.01283,1.88307,0.865005
318,-0.01282,1.88307,0.863418
319,-0.01281,1.88307,0.855482
320,-0.0128,1.88307,0.853895
321,-0.01279,1.89978,0.847547
322,-0.01278,1.88307,0.84596
323,-0.01277,1.86637,0.839612
324,-0.01276,1.86637,0.836438
325,-0.01275,1.88307,0.83009
326,-0.01274,1.88307,0.826915
327,-0.01273,1.88307,0.823741
328,-0.01272,1.88307,0.822154
329,-0.01271,1.88307,0.815806
330,-0.0127,1.88307,0.814219
331,-0.01269,1.88307,0.806284
332,-0.01268,1.88307,0.804697
333,-0.01267,1.86637,0.798349
334,-0.01266,1.88307,0.795175
335,-0.01265,1.88307,0.792
336,-0.01264,1.86637,0.787239
337,-0.01263,1.86637,0.780891
338,-0.01262,1.86637,0.777717
339,-0.01261,1.86637,0.774543
340,-0.0126,1.86637,0.771369
341,-0.01259,1.86637,0.766608
342,-0.01258,1.86637,0.763434
343,-0.01257,1.86637,0.758672
344,-0.01256,1.86637,0.753911
345,-0.01255,1.86637,0.74915
346,-0.01254,1.86637,0.744389
347,-0.01253,1.88307,0.741215
348,-0.01252,1.84967,0.736454
349,-0.01251,1.86637,0.73328
350,-0.0125,1.86637,0.726932
351,-0.01249,1.88307,0.723757
352,-0.01248,1.86637,0.720583
353,-0.01247,1.86637,0.717409
354,-0.01246,1.86637,0.712648
355,-0.01245,1.86637,0.709474
356,-0.01244,1.86637,0.704713
357,-0.01243,1.86637,0.699952
358,-0.01242,1.86637,0.696778
359,-0.01241,1.84967,0.692017
360,-0.0124,1.84967,0.687255
361,-0.01239,1.84967,0.685668
362,-0.01238,1.84967,0.677733
363,-0.01237,1.84967,0.674559
364,-0.01236,1.84967,0.671385
365,-0.01235,1.84967,0.668211
366,-0.01234,1.84967,0.661863
367,-0.01233,1.84967,0.658689
368,-0.01232,1.84967,0.655514
369,-0.01231,1.84967,0.647579
370,-0.0123,1.84967,0.647579
371,-0.01229,1.84967,0.642818
372,-0.01228,1.84967,0.63647
373,-0.01227,1.84967,0.633296
374,-0.01226,1.86637,0.630122
375,-0.01225,1.83296,0.625361
376,-0.01224,1.83296,0.620599
377,-0.01223,1.83296,0.617425
378,-0.01222,1.83296,0.612664
379,-0.01221,1.83296,0.611077
380,-0.0122,1.83296,0.604729
381,-0.01219,1.83296,0.599968
382,-0.01218,1.83296,0.596794
383,-0.01217,1.83296,0.592033
384,-0.01216,1.83296,0.588858
385,-0.01215,1.83296,0.585684
386,-0.01214,1.83296,0.580923
387,-0.01213,1.83296,0.576162
388,-0.01212,1.83296,0.571401
389,-0.01211,1.83296,0.568227
390,-0.0121,1.83296,0.563466
391,-0.01209,1.83296,0.560292
392,-0.01208,1.84967,0.555531
393,-0.01207,1.81626,0.550769
394,-0.01206,1.84967,0.546008
395,-0.01205,1.83296,0.542834
396,-0.01204,1.83296,0.53966
397,-0.01203,1.83296,0.534899
398,-0.01202,1.83296,0.531725
399,-0.01201,1.83296,0.528551
400,-0.012,1.83296,0.522203
401,-0.01199,1.83296,0.519028
402,-0.01198,1.83296,0.515854
403,-0.01197,1.81626,0.511093
404,-0.01196,1.83296,0.506332
405,-0.01195,1.83296,0.503158
406,-0.01194,1.83296,0.498397
407,-0.01193,1.83296,0.495223
408,-0.01192,1.81626,0.492049
409,-0.01191,1.81626,0.4857
410,-0.0119,1.81626,0.482526
411,-0.01189,1.81626,0.480939
412,-0.01188,1.81626,0.473004
413,-0.01187,1.81626,0.46983
414,-0.01186,1.81626,0.468243
415,-0.01185,1.81626,0.461895
416,-0.01184,1.81626,0.460308
417,-0.01183,1.81626,0.45396
418,-0.01182,1.83296,0.449198
419,-0.01181,1.79956,0.446024
420,-0.0118,1.79956,0.44285
421,-0.01179,1.79956,0.438089
422,-0.01178,1.79956,0.434915
423,-0.01177,1.83296,0.431741
424,-0.01176,1.79956,0.42698
425,-0.01175,1.79956,0.422219
426,-0.01174,1.79956,0.417458
427,-0.01173,1.79956,0.414283
428,-0.01172,1.79956,0.411109
429,-0.01171,1.79956,0.406348
430,-0.0117,1.79956,0.403174
431,-0.01169,1.81626,0.4
432,-0.01168,1.81626,0.395239
433,-0.01167,1.79956,0.390478
434,-0.01166,1.79956,0.387304
435,-0.01165,1.79956,0.382542
436,-0.01164,1.79956,0.379368
437,-0.01163,1.79956,0.376194
438,-0.01162,1.81626,0.369846
439,-0.01161,1.78285,0.363498
440,-0.0116,1.78285,0.360324
441,-0.01159,1.78285,0.35715
442,-0.01158,1.78285,0.353976
443,-0.01157,1.78285,0.34604
444,-0.01156,1.78285,0.344453
445,-0.01155,1.78285,0.341279
446,-0.01154,1.78285,0.336518
447,-0.01153,1.78285,0.333344
448,-0.01152,1.78285,0.33017
449,-0.01151,1.79956,0.326996
450,-0.0115,1.76615,0.319061
451,-0.01149,1.76615,0.317474
452,-0.01148,1.76615,0.314299
453,-0.01147,1.78285,0.309538
454,-0.01146,1.78285,0.304777
455,-0.01145,1.78285,0.304777
456,-0.01144,1.78285,0.300016
457,-0.01143,1.78285,0.295255
458,-0.01142,1.78285,0.292081
459,-0.01141,1.78285,0.288907
460,-0.0114,1.78285,0.282559
461,-0.01139,1.78285,0.280972
462,-0.01138,1.79956,0.27621
463,-0.01137,1.76615,0.273036
464,-0.01136,1.76615,0.268275
465,-0.01135,1.76615,0.265101
466,-0.01134,1.76615,0.258753
467,-0.01133,1.76615,0.257166
468,-0.01132,1.76615,0.250818
469,-0.01131,1.76615,0.249231
470,-0.0113,1.74944,0.244469
471,-0.01129,1.74944,0.241295
472,-0.01128,1.74944,0.236534
473,-0.01127,1.74944,0.23336
474,-0.01126,1.76615,0.230186
475,-0.01125,1.76615,0.227012
476,-0.01124,1.74944,0.223838
477,-0.01123,1.74944,0.21749
478,-0.01122,1.74944,0.214316
479,-0.01121,1.74944,0.211141
480,-0.0112,1.74944,0.20638
481,-0.01119,1.74944,0.203206
482,-0.01118,1.74944,0.200032
483,-0.01117,1.74944,0.193684
484,-0.01116,1.74944,0.19051
485,-0.01115,1.76615,0.188923
486,-0.01114,1.73274,0.182575
487,-0.01113,1.73274,0.179401
488,-0.01112,1.73274,0.176226
489,-0.01111,1.73274,0.173052
490,-0.0111,1.73274,0.168291
491,-0.01109,1.73274,0.165117
492,-0.01108,1.73274,0.16353
493,-0.01107,1.73274,0.157182
494,-0.01106,1.73274,0.154008
495,-0.01105,1.73274,0.150834
496,-0.01104,1.73274,0.14766
497,-0.01103,1.73274,0.142898
498,-0.01102,1.74944,0.139724
499,-0.01101,1.71604,0.134963
500,-0.011,1.71604,0.134963
501,-0.01099,1.71604,0.130202
502,-0.01098,1.71604,0.127028
503,-0.01097,1.71604,0.122267
504,-0.01096,1.71604,0.117506
505,-0.01095,1.71604,0.114332
506,-0.01094,1.71604,0.111158
507,-0.01093,1.73274,0.107983
508,-0.01092,1.68263,0.104809
509,-0.01091,1.73274,0.101635
510,-0.0109,1.71604,0.0984612
511,-0.01089,1.71604,0.0952871
512,-0.01088,1.71604,0.090526
513,-0.01087,1.68263,0.0873519
514,-0.01086,1.68263,0.0841778
515,-0.01085,1.71604,0.0810037
516,-0.01084,1.66593,0.0778296
517,-0.01083,1.66593,0.0746555
518,-0.01082,1.66593,0.0730685
519,-0.01081,1.66593,0.0698944
520,-0.0108,1.66593,0.0651332
521,-0.01079,1.66593,0.0619591
522,-0.01078,1.66593,0.0603721
523,-0.01077,1.66593,0.057198
524,-0.01076,1.68263,0.0540239
525,-0.01075,1.64922,0.0524369
526,-0.01074,1.64922,0.0492628
527,-0.01073,1.64922,0.0460887
528,-0.01072,1.64922,0.0445016
529,-0.01071,1.64922,0.0397405
530,-0.0107,1.64922,0.0381534
531,-0.01069,1.64922,0.0349793
532,-0.01068,1.66593,0.0318053
533,-0.01067,1.63252,0.0318053
534,-0.01066,1.63252,0.0286312
535,-0.01065,1.63252,0.0270441
536,-0.01064,1.63252,0.02387
537,-0.01063,1.63252,0.022283
538,-0.01062,1.63252,0.0206959
539,-0.01061,1.61581,0.0175218
540,-0.0106,1.61581,0.0143477
541,-0.01059,1.61581,0.0127607
542,-0.01058,1.59911,0.00958661
543,-0.01057,1.59911,0.00958661
544,-0.01056,1.59911,0.00799956
545,-0.01055,1.61581,0.00799956
546,-0.01054,1.58241,0.00641251
547,-0.01053,1.58241,0.00482547
548,-0.01052,1.58241,0.00482547
549,-0.01051,1.58241,0.00165137
550,-0.0105,1.5657,0.00323842
551,-0.01049,1.58241,6.43283e-05
552,-0.01048,1.549,6.43283e-05
553,-0.01047,1.549,0.00165137
554,-0.01046,1.549,-0.00152272
555,-0.01045,1.5657,-0.00152272
556,-0.01044,1.5323,-0.00152272
557,-0.01043,1.549,-0.00310976
558,-0.01042,1.51559,-0.00310976
559,-0.01041,1.5323,-0.00310976
560,-0.0104,1.49889,-0.00310976
561,-0.01039,1.49889,-0.00310976
562,-0.01038,1.49889,-0.00310976
563,-0.01037,1.48218,-0.00152272
564,-0.01036,1.48218,-0.00469681
565,-0.01035,1.46548,-0.00469681
566,-0.01034,1.48218,-0.00469681
567,-0.01033,1.44878,-0.00469681
568,-0.01032,1.44878,-0.00469681
569,-0.01031,1.44878,-0.00469681
570,-0.0103,1.44878,-0.00469681
571,-0.01029,1.43207,-0.00469681
572,-0.01028,1.44878,-0.00469681
573,-0.01027,1.39867,-0.00469681
574,-0.01026,1.39867,-0.00469681
575,-0.01025,1.39867,-0.00469681
576,-0.01024,1.38196,-0.00469681
577,-0.01023,1.38196,-0.00469681
578,-0.01022,1.36526,-0.00469681
579,-0.01021,1.36526,-0.00469681
580,-0.0102,1.38196,-0.00469681
581,-0.01019,1.34855,-0.00469681
582,-0.01018,1.36526,-0.00469681
583,-0.01017,1.33185,-0.00469681
584,-0.01016,1.34855,-0.00469681
585,-0.01015,1.31515,-0.00469681
586,-0.01014,1.31515,-0.00469681
587,-0.01013,1.31515,-0.00469681
588,-0.01012,1.31515,-0.00469681
589,-0.01011,1.29844,-0.00469681
590,-0.0101,1.31515,-0.00469681
591,-0.01009,1.28174,-0.00469681
592,-0.01008,1.28174,-0.00469681
593,-0.01007,1.28174,-0.00469681
594,-0.01006,1.26504,-0.00469681
595,-0.01005,1.28174,-0.00469681
596,-0.01004,1.24833,-0.00469681
597,-0.01003,1.26504,-0.00469681
598,-0.01002,1.23163,-0.00469681
599,-0.01001,1.23163,-0.00469681
600,-0.01,1.24833,-0.00469681
601,-0.00999,1.21493,-0.00469681
602,-0.00998,1.23163,-0.00469681
603,-0.00997,1.19822,-0.00469681
604,-0.00996,1.19822,-0.00469681
605,-0.00995,1.21493,-0.00469681
606,-0.00994,1.18152,-0.00469681
607,-0.00993,1.18152,-0.00469681
608,-0.00992,1.18152,-0.00469681
609,-0.00991,1.16481,-0.00469681
610,-0.0099,1.18152,-0.00469681
611,-0.00989,1.14811,-0.00469681
612,-0.00988,1.14811,-0.00469681
613,-0.00987,1.14811,-0.00469681
614,-0.00986,1.14811,-0.00469681
615,-0.00985,1.1147,-0.00469681
616,-0.00984,1.1147,-0.00469681
617,-0.00983,1.098,-0.00469681
618,-0.00982,1.098,-0.00469681
619,-0.00981,1.098,-0.00469681
620,-0.0098,1.0813,-0.00469681
621,-0.00979,1.0813,-0.00469681
622,-0.00978,1.06459,-0.00469681
623,-0.00977,1.0813,-0.00469681
624,-0.00976,1.04789,-0.00469681
625,-0.00975,1.04789,-0.00469681
626,-0.00974,1.04789,-0.00469681
627,-0.00973,1.03118,-0.00469681
628,-0.00972,1.04789,-0.00469681
629,-0.00971,1.01448,-0.00469681
630,-0.0097,1.01448,-0.00469681
631,-0.00969,1.01448,-0.00469681
632,-0.00968,1.01448,-0.00469681
633,-0.00967,0.997777,-0.00469681
634,-0.00966,0.997777,-0.00469681
635,-0.00965,0.981073,-0.00469681
636,-0.00964,0.997777,-0.00469681
637,-0.00963,0.964369,-0.00469681
638,-0.00962,0.981073,-0.00469681
639,-0.00961,0.947666,-0.00469681
640,-0.0096,0.947666,-0.00469681
641,-0.00959,0.964369,-0.00469681
642,-0.00958,0.930962,-0.00469681
643,-0.00957,0.930962,-0.00469681
644,-0.00956,0.947666,-0.00469681
645,-0.00955,0.914258,-0.00469681
646,-0.00954,0.914258,-0.00469681
647,-0.00953,0.914258,-0.00469681
648,-0.00952,0.897554,-0.00152272
649,-0.00951,0.897554,-0.00310976
650,-0.0095,0.897554,-0.00310976
651,-0.00949,0.880851,-0.00310976
652,-0.00948,0.897554,-0.00310976
