6a_experiments/Lab_1_introduction/results/csv/blue_diode_i_v.csv

;Scopy version,f4beeb1
;Exported on,Thursday September 19/09/2024
;Device,M2K
;Nr of samples,3200
;Sample rate,100000
;Tool,Oscilloscope
;Additional Information,
Sample,Time(S),CH1(V),CH2(V)
0,-0.016,1.38196,-0.00469681
1,-0.01599,1.43207,-0.00469681
2,-0.01598,1.39867,-0.00469681
3,-0.01597,1.44878,-0.00469681
4,-0.01596,1.43207,-0.00469681
5,-0.01595,1.43207,-0.00469681
6,-0.01594,1.46548,-0.00469681
7,-0.01593,1.44878,-0.00469681
8,-0.01592,1.44878,-0.00469681
9,-0.01591,1.48218,-0.00469681
10,-0.0159,1.46548,-0.00469681
11,-0.01589,1.48218,-0.00469681
12,-0.01588,1.48218,-0.00628386
13,-0.01587,1.48218,-0.00310976
14,-0.01586,1.49889,-0.00469681
15,-0.01585,1.49889,-0.00628386
16,-0.01584,1.51559,-0.00628386
17,-0.01583,1.51559,-0.00469681
18,-0.01582,1.549,-0.00469681
19,-0.01581,1.5323,-0.00469681
20,-0.0158,1.549,-0.00469681
21,-0.01579,1.549,-0.00469681
22,-0.01578,1.5657,-0.00469681
23,-0.01577,1.5657,-0.00469681
24,-0.01576,1.5657,-0.00469681
25,-0.01575,1.58241,-0.00469681
26,-0.01574,1.58241,-0.00469681
27,-0.01573,1.58241,-0.00469681
28,-0.01572,1.61581,-0.00469681
29,-0.01571,1.61581,-0.00310976
30,-0.0157,1.61581,-0.00628386
31,-0.01569,1.61581,-0.00469681
32,-0.01568,1.63252,-0.00628386
33,-0.01567,1.63252,-0.00628386
34,-0.01566,1.63252,-0.00628386
35,-0.01565,1.64922,-0.00469681
36,-0.01564,1.64922,-0.00628386
37,-0.01563,1.64922,-0.00469681
38,-0.01562,1.68263,-0.00469681
39,-0.01561,1.66593,-0.00469681
40,-0.0156,1.66593,-0.00469681
41,-0.01559,1.71604,-0.00628386
42,-0.01558,1.71604,-0.00628386
43,-0.01557,1.71604,-0.00628386
44,-0.01556,1.71604,-0.00628386
45,-0.01555,1.71604,-0.00628386
46,-0.01554,1.74944,-0.00628386
47,-0.01553,1.74944,-0.00628386
48,-0.01552,1.74944,-0.00628386
49,-0.01551,1.74944,-0.00628386
50,-0.0155,1.74944,-0.00469681
51,-0.01549,1.78285,-0.00469681
52,-0.01548,1.76615,-0.00469681
53,-0.01547,1.78285,-0.00469681
54,-0.01546,1.79956,-0.00628386
55,-0.01545,1.79956,-0.00469681
56,-0.01544,1.79956,-0.00628386
57,-0.01543,1.79956,-0.00310976
58,-0.01542,1.81626,-0.00628386
59,-0.01541,1.81626,-0.00469681
60,-0.0154,1.81626,-0.00628386
61,-0.01539,1.83296,-0.00628386
62,-0.01538,1.83296,-0.00628386
63,-0.01537,1.83296,-0.00628386
64,-0.01536,1.86637,-0.00628386
65,-0.01535,1.84967,-0.00469681
66,-0.01534,1.86637,-0.00628386
67,-0.01533,1.86637,-0.00628386
68,-0.01532,1.86637,-0.00628386
69,-0.01531,1.89978,-0.00628386
70,-0.0153,1.89978,-0.00469681
71,-0.01529,1.89978,-0.00628386
72,-0.01528,1.89978,-0.00469681
73,-0.01527,1.89978,-0.00469681
74,-0.01526,1.93319,-0.00469681
75,-0.01525,1.91648,-0.00628386
76,-0.01524,1.91648,-0.00628386
77,-0.01523,1.94989,-0.00628386
78,-0.01522,1.93319,-0.00628386
79,-0.01521,1.93319,-0.00628386
80,-0.0152,1.96659,-0.00628386
81,-0.01519,1.94989,-0.00628386
82,-0.01518,1.94989,-0.00628386
83,-0.01517,2,-0.00628386
84,-0.01516,2,-0.00628386
85,-0.01515,2,-0.00628386
86,-0.01514,2,-0.00628386
87,-0.01513,2,-0.00628386
88,-0.01512,2.03341,-0.00628386
89,-0.01511,2.0167,-0.00628386
90,-0.0151,2.05011,-0.00310976
91,-0.01509,2.06681,-0.00469681
92,-0.01508,2.06681,-0.00469681
93,-0.01507,2.05011,-0.00310976
94,-0.01506,2.06681,-0.00628386
95,-0.01505,2.06681,-0.00628386
96,-0.01504,2.06681,-0.00628386
97,-0.01503,2.08352,-0.00628386
98,-0.01502,2.08352,-0.00628386
99,-0.01501,2.08352,-0.00628386
100,-0.015,2.08352,-0.00628386
101,-0.01499,2.11693,-0.00628386
102,-0.01498,2.10022,-0.00628386
103,-0.01497,2.13363,-0.00628386
104,-0.01496,2.11693,-0.00628386
105,-0.01495,2.15033,-0.00628386
106,-0.01494,2.15033,-0.00628386
107,-0.01493,2.15033,-0.00628386
108,-0.01492,2.15033,-0.00628386
109,-0.01491,2.15033,-0.00628386
110,-0.0149,2.15033,-0.00628386
111,-0.01489,2.18374,-0.00628386
112,-0.01488,2.18374,-0.00628386
113,-0.01487,2.18374,-0.00628386
114,-0.01486,2.18374,-0.00628386
115,-0.01485,2.18374,-0.00628386
116,-0.01484,2.21715,-0.00628386
117,-0.01483,2.21715,-0.00628386
118,-0.01482,2.20044,-0.00628386
119,-0.01481,2.23385,-0.00628386
120,-0.0148,2.21715,-0.00628386
121,-0.01479,2.25056,-0.00628386
122,-0.01478,2.25056,-0.00628386
123,-0.01477,2.25056,-0.00628386
124,-0.01476,2.25056,-0.00628386
125,-0.01475,2.26726,-0.00628386
126,-0.01474,2.26726,-0.00628386
127,-0.01473,2.30067,-0.00628386
128,-0.01472,2.30067,-0.00628386
129,-0.01471,2.30067,-0.00628386
130,-0.0147,2.31737,-0.00628386
131,-0.01469,2.31737,-0.00469681
132,-0.01468,2.31737,-0.00628386
133,-0.01467,2.33407,-0.00310976
134,-0.01466,2.31737,-0.00628386
135,-0.01465,2.35078,-0.00310976
136,-0.01464,2.33407,-0.00628386
137,-0.01463,2.36748,-0.00469681
138,-0.01462,2.35078,-0.00469681
139,-0.01461,2.38419,-0.00469681
140,-0.0146,2.38419,-0.00469681
141,-0.01459,2.36748,-0.00469681
142,-0.01458,2.40089,-0.00469681
143,-0.01457,2.40089,-0.00469681
144,-0.01456,2.40089,-0.00152272
145,-0.01455,2.40089,-0.00310976
146,-0.01454,2.41759,-0.00152272
147,-0.01453,2.40089,-0.00152272
148,-0.01452,2.4343,-0.00152272
149,-0.01451,2.4343,-0.00152272
150,-0.0145,2.4343,6.43283e-05
151,-0.01449,2.451,6.43283e-05
152,-0.01448,2.451,6.43283e-05
153,-0.01447,2.4343,0.00323842
154,-0.01446,2.4677,0.00165137
155,-0.01445,2.451,0.00482547
156,-0.01444,2.48441,0.00482547
157,-0.01443,2.48441,0.00482547
158,-0.01442,2.48441,0.00799956
159,-0.01441,2.48441,0.00799956
160,-0.0144,2.50111,0.00958661
161,-0.01439,2.50111,0.0111737
162,-0.01438,2.50111,0.0111737
163,-0.01437,2.50111,0.0127607
164,-0.01436,2.51782,0.0175218
165,-0.01435,2.50111,0.0191089
166,-0.01434,2.53452,0.0206959
167,-0.01433,2.53452,0.0206959
168,-0.01432,2.53452,0.02387
169,-0.01431,2.53452,0.0270441
170,-0.0143,2.53452,0.0286312
171,-0.01429,2.53452,0.0302182
172,-0.01428,2.53452,0.0318053
173,-0.01427,2.53452,0.0349793
174,-0.01426,2.55122,0.0349793
175,-0.01425,2.55122,0.0381534
176,-0.01424,2.53452,0.0429146
177,-0.01423,2.58463,0.0460887
178,-0.01422,2.58463,0.0476757
179,-0.01421,2.58463,0.0508498
180,-0.0142,2.58463,0.0540239
181,-0.01419,2.58463,0.055611
182,-0.01418,2.58463,0.058785
183,-0.01417,2.60133,0.0603721
184,-0.01416,2.60133,0.0635462
185,-0.01415,2.60133,0.0683073
186,-0.01414,2.60133,0.0698944
187,-0.01413,2.60133,0.0730685
188,-0.01412,2.60133,0.0762426
189,-0.01411,2.60133,0.0778296
190,-0.0141,2.60133,0.0810037
191,-0.01409,2.61804,0.0841778
192,-0.01408,2.61804,0.0873519
193,-0.01407,2.61804,0.0889389
194,-0.01406,2.61804,0.0937001
195,-0.01405,2.61804,0.0968742
196,-0.01404,2.61804,0.101635
197,-0.01403,2.61804,0.101635
198,-0.01402,2.61804,0.104809
199,-0.01401,2.63474,0.107983
200,-0.014,2.63474,0.111158
201,-0.01399,2.63474,0.114332
202,-0.01398,2.63474,0.117506
203,-0.01397,2.63474,0.12068
204,-0.01396,2.63474,0.127028
205,-0.01395,2.63474,0.130202
206,-0.01394,2.63474,0.130202
207,-0.01393,2.63474,0.134963
208,-0.01392,2.65145,0.138137
209,-0.01391,2.65145,0.141311
210,-0.0139,2.63474,0.146073
211,-0.01389,2.66815,0.149247
212,-0.01388,2.66815,0.152421
213,-0.01387,2.63474,0.155595
214,-0.01386,2.65145,0.158769
215,-0.01385,2.65145,0.161943
216,-0.01384,2.66815,0.165117
217,-0.01383,2.66815,0.166704
218,-0.01382,2.66815,0.173052
219,-0.01381,2.66815,0.176226
220,-0.0138,2.66815,0.179401
221,-0.01379,2.66815,0.182575
222,-0.01378,2.66815,0.185749
223,-0.01377,2.66815,0.188923
224,-0.01376,2.66815,0.192097
225,-0.01375,2.65145,0.198445
226,-0.01374,2.68485,0.201619
227,-0.01373,2.68485,0.204793
228,-0.01372,2.68485,0.207967
229,-0.01371,2.68485,0.211141
230,-0.0137,2.68485,0.214316
231,-0.01369,2.68485,0.21749
232,-0.01368,2.68485,0.222251
233,-0.01367,2.68485,0.227012
234,-0.01366,2.68485,0.230186
235,-0.01365,2.68485,0.23336
236,-0.01364,2.66815,0.236534
237,-0.01363,2.70156,0.239708
238,-0.01362,2.70156,0.242882
239,-0.01361,2.70156,0.249231
240,-0.0136,2.70156,0.252405
241,-0.01359,2.70156,0.255579
242,-0.01358,2.70156,0.258753
243,-0.01357,2.70156,0.261927
244,-0.01356,2.70156,0.265101
245,-0.01355,2.70156,0.268275
246,-0.01354,2.70156,0.274623
247,-0.01353,2.68485,0.277797
248,-0.01352,2.71826,0.280972
249,-0.01351,2.71826,0.284146
250,-0.0135,2.68485,0.28732
251,-0.01349,2.71826,0.290494
252,-0.01348,2.71826,0.293668
253,-0.01347,2.71826,0.300016
254,-0.01346,2.71826,0.30319
255,-0.01345,2.71826,0.306364
256,-0.01344,2.71826,0.309538
257,-0.01343,2.71826,0.311125
258,-0.01342,2.71826,0.317474
259,-0.01341,2.71826,0.320648
260,-0.0134,2.70156,0.323822
261,-0.01339,2.73496,0.33017
262,-0.01338,2.73496,0.333344
263,-0.01337,2.73496,0.336518
264,-0.01336,2.73496,0.339692
265,-0.01335,2.73496,0.342866
266,-0.01334,2.73496,0.34604
267,-0.01333,2.73496,0.349215
268,-0.01332,2.73496,0.355563
269,-0.01331,2.73496,0.358737
270,-0.0133,2.73496,0.361911
271,-0.01329,2.73496,0.365085
272,-0.01328,2.73496,0.368259
273,-0.01327,2.71826,0.374607
274,-0.01326,2.75167,0.377781
275,-0.01325,2.73496,0.380955
276,-0.01324,2.73496,0.38413
277,-0.01323,2.73496,0.388891
278,-0.01322,2.73496,0.392065
279,-0.01321,2.75167,0.395239
280,-0.0132,2.75167,0.401587
281,-0.01319,2.75167,0.404761
282,-0.01318,2.75167,0.407935
283,-0.01317,2.75167,0.412696
284,-0.01316,2.75167,0.41587
285,-0.01315,2.73496,0.419045
286,-0.01314,2.76837,0.423806
287,-0.01313,2.76837,0.430154
288,-0.01312,2.76837,0.42698
289,-0.01311,2.73496,0.422219
290,-0.0131,2.73496,0.419045
291,-0.01309,2.73496,0.414283
292,-0.01308,2.73496,0.411109
293,-0.01307,2.73496,0.407935
294,-0.01306,2.73496,0.404761
295,-0.01305,2.73496,0.4
296,-0.01304,2.73496,0.393652
297,-0.01303,2.70156,0.390478
298,-0.01302,2.71826,0.387304
299,-0.01301,2.73496,0.38413
300,-0.013,2.73496,0.380955
301,-0.01299,2.73496,0.377781
302,-0.01298,2.73496,0.374607
303,-0.01297,2.73496,0.369846
304,-0.01296,2.73496,0.366672
305,-0.01295,2.75167,0.365085
306,-0.01294,2.75167,0.360324
307,-0.01293,2.75167,0.35715
308,-0.01292,2.71826,0.352389
309,-0.01291,2.71826,0.349215
310,-0.0129,2.71826,0.341279
311,-0.01289,2.71826,0.339692
312,-0.01288,2.71826,0.336518
313,-0.01287,2.71826,0.333344
314,-0.01286,2.71826,0.33017
315,-0.01285,2.71826,0.326996
316,-0.01284,2.71826,0.323822
317,-0.01283,2.70156,0.319061
318,-0.01282,2.73496,0.315887
319,-0.01281,2.71826,0.311125
320,-0.0128,2.71826,0.307951
321,-0.01279,2.71826,0.304777
322,-0.01278,2.71826,0.301603
323,-0.01277,2.70156,0.298429
324,-0.01276,2.70156,0.292081
325,-0.01275,2.70156,0.288907
326,-0.01274,2.70156,0.285733
327,-0.01273,2.70156,0.282559
328,-0.01272,2.70156,0.279384
329,-0.01271,2.70156,0.27621
330,-0.0127,2.70156,0.273036
331,-0.01269,2.70156,0.266688
332,-0.01268,2.70156,0.263514
333,-0.01267,2.70156,0.26034
334,-0.01266,2.70156,0.257166
335,-0.01265,2.70156,0.253992
336,-0.01264,2.68485,0.249231
337,-0.01263,2.68485,0.247644
338,-0.01262,2.68485,0.242882
339,-0.01261,2.68485,0.239708
340,-0.0126,2.68485,0.236534
341,-0.01259,2.68485,0.23336
342,-0.01258,2.68485,0.228599
343,-0.01257,2.68485,0.225425
344,-0.01256,2.68485,0.222251
345,-0.01255,2.68485,0.215903
346,-0.01254,2.66815,0.212729
347,-0.01253,2.66815,0.207967
348,-0.01252,2.65145,0.207967
349,-0.01251,2.68485,0.203206
350,-0.0125,2.66815,0.200032
351,-0.01249,2.66815,0.196858
352,-0.01248,2.66815,0.19051
353,-0.01247,2.66815,0.19051
354,-0.01246,2.66815,0.184162
355,-0.01245,2.66815,0.182575
356,-0.01244,2.66815,0.177814
357,-0.01243,2.66815,0.176226
358,-0.01242,2.65145,0.171465
359,-0.01241,2.65145,0.166704
360,-0.0124,2.65145,0.16353
361,-0.01239,2.65145,0.160356
362,-0.01238,2.65145,0.157182
363,-0.01237,2.65145,0.154008
364,-0.01236,2.65145,0.150834
365,-0.01235,2.65145,0.14766
366,-0.01234,2.65145,0.142898
367,-0.01233,2.65145,0.139724
368,-0.01232,2.65145,0.138137
369,-0.01231,2.65145,0.133376
370,-0.0123,2.63474,0.131789
371,-0.01229,2.63474,0.128615
372,-0.01228,2.63474,0.123854
373,-0.01227,2.63474,0.12068
374,-0.01226,2.63474,0.115919
375,-0.01225,2.63474,0.115919
376,-0.01224,2.60133,0.111158
377,-0.01223,2.61804,0.107983
378,-0.01222,2.60133,0.104809
379,-0.01221,2.63474,0.101635
380,-0.0122,2.61804,0.0984612
381,-0.01219,2.61804,0.0952871
382,-0.01218,2.61804,0.0937001
383,-0.01217,2.61804,0.0889389
384,-0.01216,2.61804,0.0857648
385,-0.01215,2.60133,0.0825907
386,-0.01214,2.60133,0.0810037
387,-0.01213,2.60133,0.0794166
388,-0.01212,2.60133,0.0746555
389,-0.01211,2.60133,0.0714814
390,-0.0121,2.60133,0.0698944
391,-0.01209,2.58463,0.0651332
392,-0.01208,2.58463,0.0619591
393,-0.01207,2.58463,0.058785
394,-0.01206,2.58463,0.057198
395,-0.01205,2.58463,0.0540239
396,-0.01204,2.58463,0.0524369
397,-0.01203,2.58463,0.0492628
398,-0.01202,2.58463,0.0476757
399,-0.01201,2.55122,0.0445016
400,-0.012,2.58463,0.0429146
401,-0.01199,2.53452,0.0397405
402,-0.01198,2.53452,0.0365664
403,-0.01197,2.53452,0.0333923
404,-0.01196,2.53452,0.0318053
405,-0.01195,2.53452,0.0286312
406,-0.01194,2.53452,0.0270441
407,-0.01193,2.53452,0.02387
408,-0.01192,2.53452,0.02387
409,-0.01191,2.50111,0.0206959
410,-0.0119,2.51782,0.0175218
411,-0.01189,2.50111,0.0175218
412,-0.01188,2.50111,0.0143477
413,-0.01187,2.50111,0.0127607
414,-0.01186,2.50111,0.0111737
415,-0.01185,2.50111,0.0111737
416,-0.01184,2.50111,0.00958661
417,-0.01183,2.50111,0.00799956
418,-0.01182,2.4677,0.00641251
419,-0.01181,2.48441,0.00641251
420,-0.0118,2.451,0.00323842
421,-0.01179,2.4677,0.00323842
422,-0.01178,2.4677,0.00165137
423,-0.01177,2.4343,0.00323842
424,-0.01176,2.451,6.43283e-05
425,-0.01175,2.41759,6.43283e-05
426,-0.01174,2.4343,6.43283e-05
427,-0.01173,2.4343,-0.00152272
428,-0.01172,2.40089,-0.00152272
429,-0.01171,2.41759,-0.00152272
430,-0.0117,2.41759,-0.00310976
431,-0.01169,2.40089,-0.00310976
432,-0.01168,2.40089,-0.00310976
433,-0.01167,2.40089,-0.00152272
434,-0.01166,2.36748,-0.00469681
435,-0.01165,2.38419,-0.00469681
436,-0.01164,2.36748,-0.00469681
437,-0.01163,2.36748,-0.00469681
438,-0.01162,2.35078,-0.00469681
439,-0.01161,2.35078,-0.00469681
440,-0.0116,2.35078,-0.00469681
441,-0.01159,2.35078,-0.00469681
442,-0.01158,2.31737,-0.00310976
443,-0.01157,2.33407,-0.00628386
444,-0.01156,2.30067,-0.00628386
445,-0.01155,2.31737,-0.00628386
446,-0.01154,2.31737,-0.00628386
447,-0.01153,2.26726,-0.00469681
448,-0.01152,2.30067,-0.00628386
449,-0.01151,2.30067,-0.00310976
450,-0.0115,2.25056,-0.00628386
451,-0.01149,2.25056,-0.00628386
452,-0.01148,2.25056,-0.00628386
453,-0.01147,2.25056,-0.00628386
454,-0.01146,2.23385,-0.00628386
455,-0.01145,2.23385,-0.00628386
456,-0.01144,2.23385,-0.00628386
457,-0.01143,2.21715,-0.00469681
458,-0.01142,2.21715,-0.00310976
459,-0.01141,2.21715,-0.00628386
460,-0.0114,2.20044,-0.00628386
461,-0.01139,2.20044,-0.00628386
462,-0.01138,2.20044,-0.00628386
463,-0.01137,2.16704,-0.00628386
464,-0.01136,2.16704,-0.00628386
465,-0.01135,2.16704,-0.00628386
466,-0.01134,2.16704,-0.00628386
467,-0.01133,2.15033,-0.00628386
468,-0.01132,2.15033,-0.00628386
469,-0.01131,2.15033,-0.00628386
470,-0.0113,2.15033,-0.00628386
471,-0.01129,2.11693,-0.00628386
472,-0.01128,2.11693,-0.00628386
473,-0.01127,2.11693,-0.00628386
474,-0.01126,2.11693,-0.00628386
475,-0.01125,2.11693,-0.00310976
476,-0.01124,2.08352,-0.00628386
477,-0.01123,2.10022,-0.00628386
478,-0.01122,2.06681,-0.00628386
479,-0.01121,2.06681,-0.00628386
480,-0.0112,2.06681,-0.00628386
481,-0.01119,2.06681,-0.00628386
482,-0.01118,2.06681,-0.00628386
483,-0.01117,2.03341,-0.00628386
484,-0.01116,2.05011,-0.00628386
485,-0.01115,2.03341,-0.00310976
486,-0.01114,2.03341,-0.00469681
487,-0.01113,2.03341,-0.00628386
488,-0.01112,2.03341,-0.00628386
489,-0.01111,2,-0.00628386
490,-0.0111,2,-0.00628386
491,-0.01109,2,-0.00628386
492,-0.01108,2,-0.00469681
493,-0.01107,2,-0.00469681
494,-0.01106,1.94989,-0.00469681
495,-0.01105,1.94989,-0.00628386
496,-0.01104,1.96659,-0.00310976
497,-0.01103,1.93319,-0.00469681
498,-0.01102,1.94989,-0.00469681
499,-0.01101,1.91648,-0.00469681
500,-0.011,1.91648,-0.00469681
501,-0.01099,1.93319,-0.00469681
502,-0.01098,1.89978,-0.00469681
503,-0.01097,1.89978,-0.00469681
504,-0.01096,1.89978,-0.00469681
505,-0.01095,1.89978,-0.00469681
506,-0.01094,1.89978,-0.00310976
507,-0.01093,1.86637,-0.00628386
508,-0.01092,1.86637,-0.00628386
509,-0.01091,1.86637,-0.00628386
510,-0.0109,1.84967,-0.00469681
511,-0.01089,1.84967,-0.00628386
512,-0.01088,1.84967,-0.00628386
513,-0.01087,1.81626,-0.00628386
514,-0.01086,1.81626,-0.00628386
515,-0.01085,1.81626,-0.00628386
516,-0.01084,1.81626,-0.00469681
517,-0.01083,1.81626,-0.00469681
518,-0.01082,1.79956,-0.00469681
519,-0.01081,1.81626,-0.00469681
520,-0.0108,1.78285,-0.00469681
521,-0.01079,1.78285,-0.00469681
522,-0.01078,1.78285,-0.00469681
523,-0.01077,1.78285,-0.00469681
524,-0.01076,1.78285,-0.00469681
525,-0.01075,1.74944,-0.00469681
526,-0.01074,1.74944,-0.00469681
527,-0.01073,1.74944,-0.00469681
528,-0.01072,1.74944,-0.00469681
529,-0.01071,1.74944,-0.00469681
530,-0.0107,1.71604,-0.00469681
531,-0.01069,1.71604,-0.00469681
532,-0.01068,1.71604,-0.00469681
533,-0.01067,1.68263,-0.00469681
534,-0.01066,1.68263,-0.00469681
535,-0.01065,1.68263,-0.00469681
536,-0.01064,1.66593,-0.00469681
537,-0.01063,1.66593,-0.00469681
538,-0.01062,1.66593,-0.00469681
539,-0.01061,1.66593,-0.00469681
540,-0.0106,1.63252,-0.00469681
541,-0.01059,1.63252,-0.00469681
542,-0.01058,1.63252,-0.00469681
543,-0.01057,1.63252,-0.00469681
544,-0.01056,1.61581,-0.00469681
545,-0.01055,1.61581,-0.00469681
546,-0.01054,1.61581,-0.00469681
547,-0.01053,1.61581,-0.00469681
548,-0.01052,1.58241,-0.00469681
549,-0.01051,1.58241,-0.00469681
550,-0.0105,1.59911,-0.00469681
551,-0.01049,1.5657,-0.00469681
552,-0.01048,1.5657,-0.00469681
553,-0.01047,1.5657,-0.00469681
554,-0.01046,1.549,-0.00469681
555,-0.01045,1.549,-0.00469681
556,-0.01044,1.5323,-0.00469681
557,-0.01043,1.549,-0.00469681
558,-0.01042,1.51559,-0.00469681
559,-0.01041,1.51559,-0.00469681
560,-0.0104,1.51559,-0.00469681
561,-0.01039,1.49889,-0.00469681
562,-0.01038,1.49889,-0.00469681
563,-0.01037,1.48218,-0.00469681
564,-0.01036,1.48218,-0.00469681
565,-0.01035,1.46548,-0.00469681
566,-0.01034,1.48218,-0.00469681
567,-0.01033,1.44878,-0.00469681
568,-0.01032,1.44878,-0.00469681
569,-0.01031,1.46548,-0.00469681
570,-0.0103,1.43207,-0.00469681
571,-0.01029,1.43207,-0.00469681
572,-0.01028,1.44878,-0.00469681
573,-0.01027,1.39867,-0.00469681
574,-0.01026,1.43207,-0.00469681
575,-0.01025,1.38196,-0.00469681
576,-0.01024,1.38196,-0.00469681
577,-0.01023,1.38196,-0.00469681
578,-0.01022,1.36526,-0.00469681
579,-0.01021,1.36526,-0.00469681
580,-0.0102,1.36526,-0.00469681
581,-0.01019,1.34855,-0.00469681
582,-0.01018,1.34855,-0.00469681
583,-0.01017,1.33185,-0.00469681
584,-0.01016,1.34855,-0.00469681
585,-0.01015,1.31515,-0.00469681
586,-0.01014,1.33185,-0.00469681
587,-0.01013,1.29844,-0.00469681
588,-0.01012,1.29844,-0.00469681
589,-0.01011,1.29844,-0.00469681
590,-0.0101,1.29844,-0.00469681
591,-0.01009,1.28174,-0.00469681
592,-0.01008,1.28174,-0.00469681
593,-0.01007,1.28174,-0.00469681
594,-0.01006,1.26504,-0.00469681
595,-0.01005,1.28174,-0.00469681
596,-0.01004,1.24833,-0.00469681
597,-0.01003,1.26504,-0.00469681
598,-0.01002,1.23163,-0.00469681
599,-0.01001,1.23163,-0.00469681
600,-0.01,1.23163,-0.00469681
601,-0.00999,1.21493,-0.00469681
602,-0.00998,1.23163,-0.00469681
603,-0.00997,1.19822,-0.00469681
604,-0.00996,1.19822,-0.00469681
605,-0.00995,1.21493,-0.00469681
606,-0.00994,1.18152,-0.00469681
607,-0.00993,1.18152,-0.00469681
608,-0.00992,1.18152,-0.00469681
609,-0.00991,1.16481,-0.00469681
610,-0.0099,1.18152,-0.00469681
611,-0.00989,1.14811,-0.00469681
612,-0.00988,1.14811,-0.00469681
613,-0.00987,1.16481,-0.00469681
614,-0.00986,1.1147,-0.00310976
615,-0.00985,1.1147,-0.00469681
616,-0.00984,1.1147,-0.00469681
617,-0.00983,1.098,-0.00469681
618,-0.00982,1.1147,-0.00469681
619,-0.00981,1.0813,-0.00469681
620,-0.0098,1.0813,-0.00469681
621,-0.00979,1.0813,-0.00469681
622,-0.00978,1.06459,-0.00469681
623,-0.00977,1.06459,-0.00469681
624,-0.00976,1.04789,-0.00469681
625,-0.00975,1.06459,-0.00469681
626,-0.00974,1.03118,-0.00469681
627,-0.00973,1.03118,-0.00469681
628,-0.00972,1.04789,-0.00469681
629,-0.00971,1.01448,-0.00469681
630,-0.0097,1.01448,-0.00310976
